<?xml version="1.0" standalone="no"?>
<!DOCTYPE svg PUBLIC "-//W3C//DTD SVG 1.1//EN" "http://www.w3.org/Graphics/SVG/1.1/DTD/svg11.dtd">
<svg width="2687px" height="4250px" version="1.1" xmlns="http://www.w3.org/2000/svg">

<!-- This file is a systemd-analyze SVG file. It is best rendered in a   -->
<!-- browser such as Chrome, Chromium or Firefox. Other applications     -->
<!-- that render these files properly but much slower are ImageMagick,   -->
<!-- gimp, inkscape, etc. To display the files on your system, just      -->
<!-- point your browser to this file.                                    -->

<!-- This plot was generated by systemd-analyze version 213              -->

<defs>
  <style type="text/css">
    <![CDATA[
      rect       { stroke-width: 1; stroke-opacity: 0; }
      rect.background   { fill: rgb(255,255,255); }
      rect.activating   { fill: rgb(255,0,0); fill-opacity: 0.7; }
      rect.active       { fill: rgb(200,150,150); fill-opacity: 0.7; }
      rect.deactivating { fill: rgb(150,100,100); fill-opacity: 0.7; }
      rect.kernel       { fill: rgb(150,150,150); fill-opacity: 0.7; }
      rect.initrd       { fill: rgb(150,150,150); fill-opacity: 0.7; }
      rect.firmware     { fill: rgb(150,150,150); fill-opacity: 0.7; }
      rect.loader       { fill: rgb(150,150,150); fill-opacity: 0.7; }
      rect.userspace    { fill: rgb(150,150,150); fill-opacity: 0.7; }
      rect.security     { fill: rgb(144,238,144); fill-opacity: 0.7; }
      rect.generators   { fill: rgb(102,204,255); fill-opacity: 0.7; }
      rect.unitsload    { fill: rgb( 82,184,255); fill-opacity: 0.7; }
      rect.box   { fill: rgb(240,240,240); stroke: rgb(192,192,192); }
      line       { stroke: rgb(64,64,64); stroke-width: 1; }
//    line.sec1  { }
      line.sec5  { stroke-width: 2; }
      line.sec01 { stroke: rgb(224,224,224); stroke-width: 1; }
      text       { font-family: Verdana, Helvetica; font-size: 14px; }
      text.left  { font-family: Verdana, Helvetica; font-size: 14px; text-anchor: start; }
      text.right { font-family: Verdana, Helvetica; font-size: 14px; text-anchor: end; }
      text.sec   { font-size: 10px; }
    ]]>
   </style>
</defs>

<rect class="background" width="100%" height="100%" />
<text x="20" y="50">Startup finished in 4.973s (kernel) + 21.097s (userspace) = 26.071s</text><text x="20" y="30">Linux  (  ) arm </text><g transform="translate(20.000,100)">
<rect class="box" x="0" y="0" width="2607.162" height="4000.000" />
  <line class="sec5" x1="0.000" y1="0" x2="0.000" y2="4000.000" />
  <text class="sec" x="0.000" y="-5.000" >0.0s</text>
  <line class="sec01" x1="10.000" y1="0" x2="10.000" y2="4000.000" />
  <line class="sec01" x1="20.000" y1="0" x2="20.000" y2="4000.000" />
  <line class="sec01" x1="30.000" y1="0" x2="30.000" y2="4000.000" />
  <line class="sec01" x1="40.000" y1="0" x2="40.000" y2="4000.000" />
  <line class="sec01" x1="50.000" y1="0" x2="50.000" y2="4000.000" />
  <line class="sec01" x1="60.000" y1="0" x2="60.000" y2="4000.000" />
  <line class="sec01" x1="70.000" y1="0" x2="70.000" y2="4000.000" />
  <line class="sec01" x1="80.000" y1="0" x2="80.000" y2="4000.000" />
  <line class="sec01" x1="90.000" y1="0" x2="90.000" y2="4000.000" />
  <line class="sec1" x1="100.000" y1="0" x2="100.000" y2="4000.000" />
  <text class="sec" x="100.000" y="-5.000" >1.0s</text>
  <line class="sec01" x1="110.000" y1="0" x2="110.000" y2="4000.000" />
  <line class="sec01" x1="120.000" y1="0" x2="120.000" y2="4000.000" />
  <line class="sec01" x1="130.000" y1="0" x2="130.000" y2="4000.000" />
  <line class="sec01" x1="140.000" y1="0" x2="140.000" y2="4000.000" />
  <line class="sec01" x1="150.000" y1="0" x2="150.000" y2="4000.000" />
  <line class="sec01" x1="160.000" y1="0" x2="160.000" y2="4000.000" />
  <line class="sec01" x1="170.000" y1="0" x2="170.000" y2="4000.000" />
  <line class="sec01" x1="180.000" y1="0" x2="180.000" y2="4000.000" />
  <line class="sec01" x1="190.000" y1="0" x2="190.000" y2="4000.000" />
  <line class="sec1" x1="200.000" y1="0" x2="200.000" y2="4000.000" />
  <text class="sec" x="200.000" y="-5.000" >2.0s</text>
  <line class="sec01" x1="210.000" y1="0" x2="210.000" y2="4000.000" />
  <line class="sec01" x1="220.000" y1="0" x2="220.000" y2="4000.000" />
  <line class="sec01" x1="230.000" y1="0" x2="230.000" y2="4000.000" />
  <line class="sec01" x1="240.000" y1="0" x2="240.000" y2="4000.000" />
  <line class="sec01" x1="250.000" y1="0" x2="250.000" y2="4000.000" />
  <line class="sec01" x1="260.000" y1="0" x2="260.000" y2="4000.000" />
  <line class="sec01" x1="270.000" y1="0" x2="270.000" y2="4000.000" />
  <line class="sec01" x1="280.000" y1="0" x2="280.000" y2="4000.000" />
  <line class="sec01" x1="290.000" y1="0" x2="290.000" y2="4000.000" />
  <line class="sec1" x1="300.000" y1="0" x2="300.000" y2="4000.000" />
  <text class="sec" x="300.000" y="-5.000" >3.0s</text>
  <line class="sec01" x1="310.000" y1="0" x2="310.000" y2="4000.000" />
  <line class="sec01" x1="320.000" y1="0" x2="320.000" y2="4000.000" />
  <line class="sec01" x1="330.000" y1="0" x2="330.000" y2="4000.000" />
  <line class="sec01" x1="340.000" y1="0" x2="340.000" y2="4000.000" />
  <line class="sec01" x1="350.000" y1="0" x2="350.000" y2="4000.000" />
  <line class="sec01" x1="360.000" y1="0" x2="360.000" y2="4000.000" />
  <line class="sec01" x1="370.000" y1="0" x2="370.000" y2="4000.000" />
  <line class="sec01" x1="380.000" y1="0" x2="380.000" y2="4000.000" />
  <line class="sec01" x1="390.000" y1="0" x2="390.000" y2="4000.000" />
  <line class="sec1" x1="400.000" y1="0" x2="400.000" y2="4000.000" />
  <text class="sec" x="400.000" y="-5.000" >4.0s</text>
  <line class="sec01" x1="410.000" y1="0" x2="410.000" y2="4000.000" />
  <line class="sec01" x1="420.000" y1="0" x2="420.000" y2="4000.000" />
  <line class="sec01" x1="430.000" y1="0" x2="430.000" y2="4000.000" />
  <line class="sec01" x1="440.000" y1="0" x2="440.000" y2="4000.000" />
  <line class="sec01" x1="450.000" y1="0" x2="450.000" y2="4000.000" />
  <line class="sec01" x1="460.000" y1="0" x2="460.000" y2="4000.000" />
  <line class="sec01" x1="470.000" y1="0" x2="470.000" y2="4000.000" />
  <line class="sec01" x1="480.000" y1="0" x2="480.000" y2="4000.000" />
  <line class="sec01" x1="490.000" y1="0" x2="490.000" y2="4000.000" />
  <line class="sec5" x1="500.000" y1="0" x2="500.000" y2="4000.000" />
  <text class="sec" x="500.000" y="-5.000" >5.0s</text>
  <line class="sec01" x1="510.000" y1="0" x2="510.000" y2="4000.000" />
  <line class="sec01" x1="520.000" y1="0" x2="520.000" y2="4000.000" />
  <line class="sec01" x1="530.000" y1="0" x2="530.000" y2="4000.000" />
  <line class="sec01" x1="540.000" y1="0" x2="540.000" y2="4000.000" />
  <line class="sec01" x1="550.000" y1="0" x2="550.000" y2="4000.000" />
  <line class="sec01" x1="560.000" y1="0" x2="560.000" y2="4000.000" />
  <line class="sec01" x1="570.000" y1="0" x2="570.000" y2="4000.000" />
  <line class="sec01" x1="580.000" y1="0" x2="580.000" y2="4000.000" />
  <line class="sec01" x1="590.000" y1="0" x2="590.000" y2="4000.000" />
  <line class="sec1" x1="600.000" y1="0" x2="600.000" y2="4000.000" />
  <text class="sec" x="600.000" y="-5.000" >6.0s</text>
  <line class="sec01" x1="610.000" y1="0" x2="610.000" y2="4000.000" />
  <line class="sec01" x1="620.000" y1="0" x2="620.000" y2="4000.000" />
  <line class="sec01" x1="630.000" y1="0" x2="630.000" y2="4000.000" />
  <line class="sec01" x1="640.000" y1="0" x2="640.000" y2="4000.000" />
  <line class="sec01" x1="650.000" y1="0" x2="650.000" y2="4000.000" />
  <line class="sec01" x1="660.000" y1="0" x2="660.000" y2="4000.000" />
  <line class="sec01" x1="670.000" y1="0" x2="670.000" y2="4000.000" />
  <line class="sec01" x1="680.000" y1="0" x2="680.000" y2="4000.000" />
  <line class="sec01" x1="690.000" y1="0" x2="690.000" y2="4000.000" />
  <line class="sec1" x1="700.000" y1="0" x2="700.000" y2="4000.000" />
  <text class="sec" x="700.000" y="-5.000" >7.0s</text>
  <line class="sec01" x1="710.000" y1="0" x2="710.000" y2="4000.000" />
  <line class="sec01" x1="720.000" y1="0" x2="720.000" y2="4000.000" />
  <line class="sec01" x1="730.000" y1="0" x2="730.000" y2="4000.000" />
  <line class="sec01" x1="740.000" y1="0" x2="740.000" y2="4000.000" />
  <line class="sec01" x1="750.000" y1="0" x2="750.000" y2="4000.000" />
  <line class="sec01" x1="760.000" y1="0" x2="760.000" y2="4000.000" />
  <line class="sec01" x1="770.000" y1="0" x2="770.000" y2="4000.000" />
  <line class="sec01" x1="780.000" y1="0" x2="780.000" y2="4000.000" />
  <line class="sec01" x1="790.000" y1="0" x2="790.000" y2="4000.000" />
  <line class="sec1" x1="800.000" y1="0" x2="800.000" y2="4000.000" />
  <text class="sec" x="800.000" y="-5.000" >8.0s</text>
  <line class="sec01" x1="810.000" y1="0" x2="810.000" y2="4000.000" />
  <line class="sec01" x1="820.000" y1="0" x2="820.000" y2="4000.000" />
  <line class="sec01" x1="830.000" y1="0" x2="830.000" y2="4000.000" />
  <line class="sec01" x1="840.000" y1="0" x2="840.000" y2="4000.000" />
  <line class="sec01" x1="850.000" y1="0" x2="850.000" y2="4000.000" />
  <line class="sec01" x1="860.000" y1="0" x2="860.000" y2="4000.000" />
  <line class="sec01" x1="870.000" y1="0" x2="870.000" y2="4000.000" />
  <line class="sec01" x1="880.000" y1="0" x2="880.000" y2="4000.000" />
  <line class="sec01" x1="890.000" y1="0" x2="890.000" y2="4000.000" />
  <line class="sec1" x1="900.000" y1="0" x2="900.000" y2="4000.000" />
  <text class="sec" x="900.000" y="-5.000" >9.0s</text>
  <line class="sec01" x1="910.000" y1="0" x2="910.000" y2="4000.000" />
  <line class="sec01" x1="920.000" y1="0" x2="920.000" y2="4000.000" />
  <line class="sec01" x1="930.000" y1="0" x2="930.000" y2="4000.000" />
  <line class="sec01" x1="940.000" y1="0" x2="940.000" y2="4000.000" />
  <line class="sec01" x1="950.000" y1="0" x2="950.000" y2="4000.000" />
  <line class="sec01" x1="960.000" y1="0" x2="960.000" y2="4000.000" />
  <line class="sec01" x1="970.000" y1="0" x2="970.000" y2="4000.000" />
  <line class="sec01" x1="980.000" y1="0" x2="980.000" y2="4000.000" />
  <line class="sec01" x1="990.000" y1="0" x2="990.000" y2="4000.000" />
  <line class="sec5" x1="1000.000" y1="0" x2="1000.000" y2="4000.000" />
  <text class="sec" x="1000.000" y="-5.000" >10.0s</text>
  <line class="sec01" x1="1010.000" y1="0" x2="1010.000" y2="4000.000" />
  <line class="sec01" x1="1020.000" y1="0" x2="1020.000" y2="4000.000" />
  <line class="sec01" x1="1030.000" y1="0" x2="1030.000" y2="4000.000" />
  <line class="sec01" x1="1040.000" y1="0" x2="1040.000" y2="4000.000" />
  <line class="sec01" x1="1050.000" y1="0" x2="1050.000" y2="4000.000" />
  <line class="sec01" x1="1060.000" y1="0" x2="1060.000" y2="4000.000" />
  <line class="sec01" x1="1070.000" y1="0" x2="1070.000" y2="4000.000" />
  <line class="sec01" x1="1080.000" y1="0" x2="1080.000" y2="4000.000" />
  <line class="sec01" x1="1090.000" y1="0" x2="1090.000" y2="4000.000" />
  <line class="sec1" x1="1100.000" y1="0" x2="1100.000" y2="4000.000" />
  <text class="sec" x="1100.000" y="-5.000" >11.0s</text>
  <line class="sec01" x1="1110.000" y1="0" x2="1110.000" y2="4000.000" />
  <line class="sec01" x1="1120.000" y1="0" x2="1120.000" y2="4000.000" />
  <line class="sec01" x1="1130.000" y1="0" x2="1130.000" y2="4000.000" />
  <line class="sec01" x1="1140.000" y1="0" x2="1140.000" y2="4000.000" />
  <line class="sec01" x1="1150.000" y1="0" x2="1150.000" y2="4000.000" />
  <line class="sec01" x1="1160.000" y1="0" x2="1160.000" y2="4000.000" />
  <line class="sec01" x1="1170.000" y1="0" x2="1170.000" y2="4000.000" />
  <line class="sec01" x1="1180.000" y1="0" x2="1180.000" y2="4000.000" />
  <line class="sec01" x1="1190.000" y1="0" x2="1190.000" y2="4000.000" />
  <line class="sec1" x1="1200.000" y1="0" x2="1200.000" y2="4000.000" />
  <text class="sec" x="1200.000" y="-5.000" >12.0s</text>
  <line class="sec01" x1="1210.000" y1="0" x2="1210.000" y2="4000.000" />
  <line class="sec01" x1="1220.000" y1="0" x2="1220.000" y2="4000.000" />
  <line class="sec01" x1="1230.000" y1="0" x2="1230.000" y2="4000.000" />
  <line class="sec01" x1="1240.000" y1="0" x2="1240.000" y2="4000.000" />
  <line class="sec01" x1="1250.000" y1="0" x2="1250.000" y2="4000.000" />
  <line class="sec01" x1="1260.000" y1="0" x2="1260.000" y2="4000.000" />
  <line class="sec01" x1="1270.000" y1="0" x2="1270.000" y2="4000.000" />
  <line class="sec01" x1="1280.000" y1="0" x2="1280.000" y2="4000.000" />
  <line class="sec01" x1="1290.000" y1="0" x2="1290.000" y2="4000.000" />
  <line class="sec1" x1="1300.000" y1="0" x2="1300.000" y2="4000.000" />
  <text class="sec" x="1300.000" y="-5.000" >13.0s</text>
  <line class="sec01" x1="1310.000" y1="0" x2="1310.000" y2="4000.000" />
  <line class="sec01" x1="1320.000" y1="0" x2="1320.000" y2="4000.000" />
  <line class="sec01" x1="1330.000" y1="0" x2="1330.000" y2="4000.000" />
  <line class="sec01" x1="1340.000" y1="0" x2="1340.000" y2="4000.000" />
  <line class="sec01" x1="1350.000" y1="0" x2="1350.000" y2="4000.000" />
  <line class="sec01" x1="1360.000" y1="0" x2="1360.000" y2="4000.000" />
  <line class="sec01" x1="1370.000" y1="0" x2="1370.000" y2="4000.000" />
  <line class="sec01" x1="1380.000" y1="0" x2="1380.000" y2="4000.000" />
  <line class="sec01" x1="1390.000" y1="0" x2="1390.000" y2="4000.000" />
  <line class="sec1" x1="1400.000" y1="0" x2="1400.000" y2="4000.000" />
  <text class="sec" x="1400.000" y="-5.000" >14.0s</text>
  <line class="sec01" x1="1410.000" y1="0" x2="1410.000" y2="4000.000" />
  <line class="sec01" x1="1420.000" y1="0" x2="1420.000" y2="4000.000" />
  <line class="sec01" x1="1430.000" y1="0" x2="1430.000" y2="4000.000" />
  <line class="sec01" x1="1440.000" y1="0" x2="1440.000" y2="4000.000" />
  <line class="sec01" x1="1450.000" y1="0" x2="1450.000" y2="4000.000" />
  <line class="sec01" x1="1460.000" y1="0" x2="1460.000" y2="4000.000" />
  <line class="sec01" x1="1470.000" y1="0" x2="1470.000" y2="4000.000" />
  <line class="sec01" x1="1480.000" y1="0" x2="1480.000" y2="4000.000" />
  <line class="sec01" x1="1490.000" y1="0" x2="1490.000" y2="4000.000" />
  <line class="sec5" x1="1500.000" y1="0" x2="1500.000" y2="4000.000" />
  <text class="sec" x="1500.000" y="-5.000" >15.0s</text>
  <line class="sec01" x1="1510.000" y1="0" x2="1510.000" y2="4000.000" />
  <line class="sec01" x1="1520.000" y1="0" x2="1520.000" y2="4000.000" />
  <line class="sec01" x1="1530.000" y1="0" x2="1530.000" y2="4000.000" />
  <line class="sec01" x1="1540.000" y1="0" x2="1540.000" y2="4000.000" />
  <line class="sec01" x1="1550.000" y1="0" x2="1550.000" y2="4000.000" />
  <line class="sec01" x1="1560.000" y1="0" x2="1560.000" y2="4000.000" />
  <line class="sec01" x1="1570.000" y1="0" x2="1570.000" y2="4000.000" />
  <line class="sec01" x1="1580.000" y1="0" x2="1580.000" y2="4000.000" />
  <line class="sec01" x1="1590.000" y1="0" x2="1590.000" y2="4000.000" />
  <line class="sec1" x1="1600.000" y1="0" x2="1600.000" y2="4000.000" />
  <text class="sec" x="1600.000" y="-5.000" >16.0s</text>
  <line class="sec01" x1="1610.000" y1="0" x2="1610.000" y2="4000.000" />
  <line class="sec01" x1="1620.000" y1="0" x2="1620.000" y2="4000.000" />
  <line class="sec01" x1="1630.000" y1="0" x2="1630.000" y2="4000.000" />
  <line class="sec01" x1="1640.000" y1="0" x2="1640.000" y2="4000.000" />
  <line class="sec01" x1="1650.000" y1="0" x2="1650.000" y2="4000.000" />
  <line class="sec01" x1="1660.000" y1="0" x2="1660.000" y2="4000.000" />
  <line class="sec01" x1="1670.000" y1="0" x2="1670.000" y2="4000.000" />
  <line class="sec01" x1="1680.000" y1="0" x2="1680.000" y2="4000.000" />
  <line class="sec01" x1="1690.000" y1="0" x2="1690.000" y2="4000.000" />
  <line class="sec1" x1="1700.000" y1="0" x2="1700.000" y2="4000.000" />
  <text class="sec" x="1700.000" y="-5.000" >17.0s</text>
  <line class="sec01" x1="1710.000" y1="0" x2="1710.000" y2="4000.000" />
  <line class="sec01" x1="1720.000" y1="0" x2="1720.000" y2="4000.000" />
  <line class="sec01" x1="1730.000" y1="0" x2="1730.000" y2="4000.000" />
  <line class="sec01" x1="1740.000" y1="0" x2="1740.000" y2="4000.000" />
  <line class="sec01" x1="1750.000" y1="0" x2="1750.000" y2="4000.000" />
  <line class="sec01" x1="1760.000" y1="0" x2="1760.000" y2="4000.000" />
  <line class="sec01" x1="1770.000" y1="0" x2="1770.000" y2="4000.000" />
  <line class="sec01" x1="1780.000" y1="0" x2="1780.000" y2="4000.000" />
  <line class="sec01" x1="1790.000" y1="0" x2="1790.000" y2="4000.000" />
  <line class="sec1" x1="1800.000" y1="0" x2="1800.000" y2="4000.000" />
  <text class="sec" x="1800.000" y="-5.000" >18.0s</text>
  <line class="sec01" x1="1810.000" y1="0" x2="1810.000" y2="4000.000" />
  <line class="sec01" x1="1820.000" y1="0" x2="1820.000" y2="4000.000" />
  <line class="sec01" x1="1830.000" y1="0" x2="1830.000" y2="4000.000" />
  <line class="sec01" x1="1840.000" y1="0" x2="1840.000" y2="4000.000" />
  <line class="sec01" x1="1850.000" y1="0" x2="1850.000" y2="4000.000" />
  <line class="sec01" x1="1860.000" y1="0" x2="1860.000" y2="4000.000" />
  <line class="sec01" x1="1870.000" y1="0" x2="1870.000" y2="4000.000" />
  <line class="sec01" x1="1880.000" y1="0" x2="1880.000" y2="4000.000" />
  <line class="sec01" x1="1890.000" y1="0" x2="1890.000" y2="4000.000" />
  <line class="sec1" x1="1900.000" y1="0" x2="1900.000" y2="4000.000" />
  <text class="sec" x="1900.000" y="-5.000" >19.0s</text>
  <line class="sec01" x1="1910.000" y1="0" x2="1910.000" y2="4000.000" />
  <line class="sec01" x1="1920.000" y1="0" x2="1920.000" y2="4000.000" />
  <line class="sec01" x1="1930.000" y1="0" x2="1930.000" y2="4000.000" />
  <line class="sec01" x1="1940.000" y1="0" x2="1940.000" y2="4000.000" />
  <line class="sec01" x1="1950.000" y1="0" x2="1950.000" y2="4000.000" />
  <line class="sec01" x1="1960.000" y1="0" x2="1960.000" y2="4000.000" />
  <line class="sec01" x1="1970.000" y1="0" x2="1970.000" y2="4000.000" />
  <line class="sec01" x1="1980.000" y1="0" x2="1980.000" y2="4000.000" />
  <line class="sec01" x1="1990.000" y1="0" x2="1990.000" y2="4000.000" />
  <line class="sec5" x1="2000.000" y1="0" x2="2000.000" y2="4000.000" />
  <text class="sec" x="2000.000" y="-5.000" >20.0s</text>
  <line class="sec01" x1="2010.000" y1="0" x2="2010.000" y2="4000.000" />
  <line class="sec01" x1="2020.000" y1="0" x2="2020.000" y2="4000.000" />
  <line class="sec01" x1="2030.000" y1="0" x2="2030.000" y2="4000.000" />
  <line class="sec01" x1="2040.000" y1="0" x2="2040.000" y2="4000.000" />
  <line class="sec01" x1="2050.000" y1="0" x2="2050.000" y2="4000.000" />
  <line class="sec01" x1="2060.000" y1="0" x2="2060.000" y2="4000.000" />
  <line class="sec01" x1="2070.000" y1="0" x2="2070.000" y2="4000.000" />
  <line class="sec01" x1="2080.000" y1="0" x2="2080.000" y2="4000.000" />
  <line class="sec01" x1="2090.000" y1="0" x2="2090.000" y2="4000.000" />
  <line class="sec1" x1="2100.000" y1="0" x2="2100.000" y2="4000.000" />
  <text class="sec" x="2100.000" y="-5.000" >21.0s</text>
  <line class="sec01" x1="2110.000" y1="0" x2="2110.000" y2="4000.000" />
  <line class="sec01" x1="2120.000" y1="0" x2="2120.000" y2="4000.000" />
  <line class="sec01" x1="2130.000" y1="0" x2="2130.000" y2="4000.000" />
  <line class="sec01" x1="2140.000" y1="0" x2="2140.000" y2="4000.000" />
  <line class="sec01" x1="2150.000" y1="0" x2="2150.000" y2="4000.000" />
  <line class="sec01" x1="2160.000" y1="0" x2="2160.000" y2="4000.000" />
  <line class="sec01" x1="2170.000" y1="0" x2="2170.000" y2="4000.000" />
  <line class="sec01" x1="2180.000" y1="0" x2="2180.000" y2="4000.000" />
  <line class="sec01" x1="2190.000" y1="0" x2="2190.000" y2="4000.000" />
  <line class="sec1" x1="2200.000" y1="0" x2="2200.000" y2="4000.000" />
  <text class="sec" x="2200.000" y="-5.000" >22.0s</text>
  <line class="sec01" x1="2210.000" y1="0" x2="2210.000" y2="4000.000" />
  <line class="sec01" x1="2220.000" y1="0" x2="2220.000" y2="4000.000" />
  <line class="sec01" x1="2230.000" y1="0" x2="2230.000" y2="4000.000" />
  <line class="sec01" x1="2240.000" y1="0" x2="2240.000" y2="4000.000" />
  <line class="sec01" x1="2250.000" y1="0" x2="2250.000" y2="4000.000" />
  <line class="sec01" x1="2260.000" y1="0" x2="2260.000" y2="4000.000" />
  <line class="sec01" x1="2270.000" y1="0" x2="2270.000" y2="4000.000" />
  <line class="sec01" x1="2280.000" y1="0" x2="2280.000" y2="4000.000" />
  <line class="sec01" x1="2290.000" y1="0" x2="2290.000" y2="4000.000" />
  <line class="sec1" x1="2300.000" y1="0" x2="2300.000" y2="4000.000" />
  <text class="sec" x="2300.000" y="-5.000" >23.0s</text>
  <line class="sec01" x1="2310.000" y1="0" x2="2310.000" y2="4000.000" />
  <line class="sec01" x1="2320.000" y1="0" x2="2320.000" y2="4000.000" />
  <line class="sec01" x1="2330.000" y1="0" x2="2330.000" y2="4000.000" />
  <line class="sec01" x1="2340.000" y1="0" x2="2340.000" y2="4000.000" />
  <line class="sec01" x1="2350.000" y1="0" x2="2350.000" y2="4000.000" />
  <line class="sec01" x1="2360.000" y1="0" x2="2360.000" y2="4000.000" />
  <line class="sec01" x1="2370.000" y1="0" x2="2370.000" y2="4000.000" />
  <line class="sec01" x1="2380.000" y1="0" x2="2380.000" y2="4000.000" />
  <line class="sec01" x1="2390.000" y1="0" x2="2390.000" y2="4000.000" />
  <line class="sec1" x1="2400.000" y1="0" x2="2400.000" y2="4000.000" />
  <text class="sec" x="2400.000" y="-5.000" >24.0s</text>
  <line class="sec01" x1="2410.000" y1="0" x2="2410.000" y2="4000.000" />
  <line class="sec01" x1="2420.000" y1="0" x2="2420.000" y2="4000.000" />
  <line class="sec01" x1="2430.000" y1="0" x2="2430.000" y2="4000.000" />
  <line class="sec01" x1="2440.000" y1="0" x2="2440.000" y2="4000.000" />
  <line class="sec01" x1="2450.000" y1="0" x2="2450.000" y2="4000.000" />
  <line class="sec01" x1="2460.000" y1="0" x2="2460.000" y2="4000.000" />
  <line class="sec01" x1="2470.000" y1="0" x2="2470.000" y2="4000.000" />
  <line class="sec01" x1="2480.000" y1="0" x2="2480.000" y2="4000.000" />
  <line class="sec01" x1="2490.000" y1="0" x2="2490.000" y2="4000.000" />
  <line class="sec5" x1="2500.000" y1="0" x2="2500.000" y2="4000.000" />
  <text class="sec" x="2500.000" y="-5.000" >25.0s</text>
  <line class="sec01" x1="2510.000" y1="0" x2="2510.000" y2="4000.000" />
  <line class="sec01" x1="2520.000" y1="0" x2="2520.000" y2="4000.000" />
  <line class="sec01" x1="2530.000" y1="0" x2="2530.000" y2="4000.000" />
  <line class="sec01" x1="2540.000" y1="0" x2="2540.000" y2="4000.000" />
  <line class="sec01" x1="2550.000" y1="0" x2="2550.000" y2="4000.000" />
  <line class="sec01" x1="2560.000" y1="0" x2="2560.000" y2="4000.000" />
  <line class="sec01" x1="2570.000" y1="0" x2="2570.000" y2="4000.000" />
  <line class="sec01" x1="2580.000" y1="0" x2="2580.000" y2="4000.000" />
  <line class="sec01" x1="2590.000" y1="0" x2="2590.000" y2="4000.000" />
  <line class="sec1" x1="2600.000" y1="0" x2="2600.000" y2="4000.000" />
  <text class="sec" x="2600.000" y="-5.000" >26.0s</text>
  <rect class="kernel" x="0.000" y="0.000" width="497.379" height="19.000" />
  <text class="left" x="5.000" y="14.000">kernel</text>
  <rect class="active" x="497.379" y="20.000" width="2109.783" height="19.000" />
  <rect class="security" x="497.521" y="20.000" width="0.461" height="19.000" />
  <rect class="generators" x="531.813" y="20.000" width="19.904" height="19.000" />
  <rect class="unitsload" x="554.294" y="20.000" width="22.077" height="19.000" />
  <text class="left" x="502.379" y="34.000">systemd</text>
  <rect class="activating" x="576.408" y="40.000" width="0.000" height="19.000" />
  <rect class="active" x="576.408" y="40.000" width="2030.754" height="19.000" />
  <rect class="deactivating" x="2607.162" y="40.000" width="0.000" height="19.000" />
  <text class="left" x="581.408" y="54.000">-.mount</text>
  <rect class="activating" x="576.942" y="60.000" width="0.000" height="19.000" />
  <rect class="active" x="576.942" y="60.000" width="2030.219" height="19.000" />
  <rect class="deactivating" x="2607.162" y="60.000" width="0.000" height="19.000" />
  <text class="left" x="581.942" y="74.000">systemd-ask-password-wall.path</text>
  <rect class="activating" x="577.018" y="80.000" width="0.000" height="19.000" />
  <rect class="active" x="577.018" y="80.000" width="2030.144" height="19.000" />
  <rect class="deactivating" x="2607.162" y="80.000" width="0.000" height="19.000" />
  <text class="left" x="582.018" y="94.000">remote-fs-pre.target</text>
  <rect class="activating" x="577.076" y="100.000" width="0.000" height="19.000" />
  <rect class="active" x="577.076" y="100.000" width="2030.086" height="19.000" />
  <rect class="deactivating" x="2607.162" y="100.000" width="0.000" height="19.000" />
  <text class="left" x="582.076" y="114.000">cryptsetup.target</text>
  <rect class="activating" x="577.202" y="120.000" width="0.000" height="19.000" />
  <rect class="active" x="577.202" y="120.000" width="2029.960" height="19.000" />
  <rect class="deactivating" x="2607.162" y="120.000" width="0.000" height="19.000" />
  <text class="left" x="582.202" y="134.000">proc-sys-fs-binfmt_misc.automount</text>
  <rect class="activating" x="577.262" y="140.000" width="0.000" height="19.000" />
  <rect class="active" x="577.262" y="140.000" width="2029.900" height="19.000" />
  <rect class="deactivating" x="2607.162" y="140.000" width="0.000" height="19.000" />
  <text class="left" x="582.262" y="154.000">swap.target</text>
  <rect class="activating" x="583.315" y="160.000" width="0.000" height="19.000" />
  <rect class="active" x="583.315" y="160.000" width="2023.847" height="19.000" />
  <rect class="deactivating" x="2607.162" y="160.000" width="0.000" height="19.000" />
  <text class="left" x="588.315" y="174.000">-.slice</text>
  <rect class="activating" x="583.423" y="180.000" width="0.000" height="19.000" />
  <rect class="active" x="583.423" y="180.000" width="2023.739" height="19.000" />
  <rect class="deactivating" x="2607.162" y="180.000" width="0.000" height="19.000" />
  <text class="left" x="588.423" y="194.000">systemd-journald.socket</text>
  <rect class="activating" x="583.499" y="200.000" width="0.000" height="19.000" />
  <rect class="active" x="583.499" y="200.000" width="2023.663" height="19.000" />
  <rect class="deactivating" x="2607.162" y="200.000" width="0.000" height="19.000" />
  <text class="left" x="588.499" y="214.000">systemd-shutdownd.socket</text>
  <rect class="activating" x="583.562" y="220.000" width="0.000" height="19.000" />
  <rect class="active" x="583.562" y="220.000" width="2023.600" height="19.000" />
  <rect class="deactivating" x="2607.162" y="220.000" width="0.000" height="19.000" />
  <text class="left" x="588.562" y="234.000">systemd-initctl.socket</text>
  <rect class="activating" x="583.747" y="240.000" width="0.000" height="19.000" />
  <rect class="active" x="583.747" y="240.000" width="2023.415" height="19.000" />
  <rect class="deactivating" x="2607.162" y="240.000" width="0.000" height="19.000" />
  <text class="left" x="588.747" y="254.000">user.slice</text>
  <rect class="activating" x="583.814" y="260.000" width="0.000" height="19.000" />
  <rect class="active" x="583.814" y="260.000" width="2023.348" height="19.000" />
  <rect class="deactivating" x="2607.162" y="260.000" width="0.000" height="19.000" />
  <text class="left" x="588.814" y="274.000">systemd-udevd-kernel.socket</text>
  <rect class="activating" x="583.881" y="280.000" width="0.000" height="19.000" />
  <rect class="active" x="583.881" y="280.000" width="2023.281" height="19.000" />
  <rect class="deactivating" x="2607.162" y="280.000" width="0.000" height="19.000" />
  <text class="left" x="588.881" y="294.000">systemd-udevd-control.socket</text>
  <rect class="activating" x="584.068" y="300.000" width="0.000" height="19.000" />
  <rect class="active" x="584.068" y="300.000" width="2023.094" height="19.000" />
  <rect class="deactivating" x="2607.162" y="300.000" width="0.000" height="19.000" />
  <text class="left" x="589.068" y="314.000">system.slice</text>
  <rect class="activating" x="590.089" y="320.000" width="82.973" height="19.000" />
  <rect class="active" x="673.062" y="320.000" width="1934.100" height="19.000" />
  <rect class="deactivating" x="2607.162" y="320.000" width="0.000" height="19.000" />
  <text class="left" x="595.089" y="334.000">systemd-modules-load.service (829ms)</text>
  <rect class="activating" x="599.906" y="340.000" width="79.319" height="19.000" />
  <rect class="active" x="679.224" y="340.000" width="1927.937" height="19.000" />
  <rect class="deactivating" x="2607.162" y="340.000" width="0.000" height="19.000" />
  <text class="left" x="604.906" y="354.000">dev-mqueue.mount (793ms)</text>
  <rect class="activating" x="603.103" y="360.000" width="75.960" height="19.000" />
  <rect class="active" x="679.063" y="360.000" width="1928.099" height="19.000" />
  <rect class="deactivating" x="2607.162" y="360.000" width="0.000" height="19.000" />
  <text class="left" x="608.103" y="374.000">kmod-static-nodes.service (759ms)</text>
  <rect class="activating" x="610.039" y="380.000" width="69.326" height="19.000" />
  <rect class="active" x="679.365" y="380.000" width="1927.797" height="19.000" />
  <rect class="deactivating" x="2607.162" y="380.000" width="0.000" height="19.000" />
  <text class="left" x="615.039" y="394.000">sys-kernel-debug.mount (693ms)</text>
  <rect class="activating" x="620.117" y="400.000" width="0.000" height="19.000" />
  <rect class="active" x="620.117" y="400.000" width="1987.045" height="19.000" />
  <rect class="deactivating" x="2607.162" y="400.000" width="0.000" height="19.000" />
  <text class="left" x="625.117" y="414.000">systemd-journald.service</text>
  <rect class="activating" x="646.103" y="420.000" width="38.990" height="19.000" />
  <rect class="active" x="685.093" y="420.000" width="1922.069" height="19.000" />
  <rect class="deactivating" x="2607.162" y="420.000" width="0.000" height="19.000" />
  <text class="left" x="651.103" y="434.000">systemd-sysctl.service (389ms)</text>
  <rect class="activating" x="650.091" y="440.000" width="44.977" height="19.000" />
  <rect class="active" x="695.068" y="440.000" width="1912.094" height="19.000" />
  <rect class="deactivating" x="2607.162" y="440.000" width="0.000" height="19.000" />
  <text class="left" x="655.091" y="454.000">systemd-fsck-root.service (449ms)</text>
  <rect class="activating" x="650.292" y="460.000" width="0.000" height="19.000" />
  <rect class="active" x="650.292" y="460.000" width="1956.870" height="19.000" />
  <rect class="deactivating" x="2607.162" y="460.000" width="0.000" height="19.000" />
  <text class="left" x="655.292" y="474.000">system-systemd\x2dfsck.slice</text>
  <rect class="activating" x="654.129" y="480.000" width="41.147" height="19.000" />
  <rect class="active" x="695.276" y="480.000" width="1911.885" height="19.000" />
  <rect class="deactivating" x="2607.162" y="480.000" width="0.000" height="19.000" />
  <text class="left" x="659.129" y="494.000">tmp.mount (411ms)</text>
  <rect class="activating" x="654.362" y="500.000" width="0.000" height="19.000" />
  <rect class="active" x="654.362" y="500.000" width="1952.800" height="19.000" />
  <rect class="deactivating" x="2607.162" y="500.000" width="0.000" height="19.000" />
  <text class="left" x="659.362" y="514.000">system-chaiwala\x2duser.slice</text>
  <rect class="activating" x="654.706" y="520.000" width="0.000" height="19.000" />
  <rect class="active" x="654.706" y="520.000" width="1952.456" height="19.000" />
  <rect class="deactivating" x="2607.162" y="520.000" width="0.000" height="19.000" />
  <text class="left" x="659.706" y="534.000">system-getty.slice</text>
  <rect class="activating" x="655.241" y="540.000" width="0.000" height="19.000" />
  <rect class="active" x="655.241" y="540.000" width="1951.921" height="19.000" />
  <rect class="deactivating" x="2607.162" y="540.000" width="0.000" height="19.000" />
  <text class="left" x="660.241" y="554.000">system-serial\x2dgetty.slice</text>
  <rect class="activating" x="663.092" y="560.000" width="48.961" height="19.000" />
  <rect class="active" x="712.053" y="560.000" width="1895.109" height="19.000" />
  <rect class="deactivating" x="2607.162" y="560.000" width="0.000" height="19.000" />
  <text class="left" x="668.092" y="574.000">systemd-udev-trigger.service (489ms)</text>
  <rect class="activating" x="664.018" y="580.000" width="0.000" height="19.000" />
  <rect class="active" x="664.018" y="580.000" width="1943.144" height="19.000" />
  <rect class="deactivating" x="2607.162" y="580.000" width="0.000" height="19.000" />
  <text class="left" x="669.018" y="594.000">slices.target</text>
  <rect class="activating" x="731.090" y="600.000" width="12.973" height="19.000" />
  <rect class="active" x="744.062" y="600.000" width="1863.100" height="19.000" />
  <rect class="deactivating" x="2607.162" y="600.000" width="0.000" height="19.000" />
  <text class="left" x="736.090" y="614.000">systemd-remount-fs.service (129ms)</text>
  <rect class="activating" x="735.097" y="620.000" width="14.951" height="19.000" />
  <rect class="active" x="750.048" y="620.000" width="1857.114" height="19.000" />
  <rect class="deactivating" x="2607.162" y="620.000" width="0.000" height="19.000" />
  <text class="left" x="740.097" y="634.000">systemd-tmpfiles-setup-dev.service (149ms)</text>
  <rect class="activating" x="757.052" y="640.000" width="23.743" height="19.000" />
  <rect class="active" x="780.796" y="640.000" width="1826.366" height="19.000" />
  <rect class="deactivating" x="2607.162" y="640.000" width="0.000" height="19.000" />
  <text class="left" x="762.052" y="654.000">systemd-udevd.service (237ms)</text>
  <rect class="activating" x="757.117" y="660.000" width="0.000" height="19.000" />
  <rect class="active" x="757.117" y="660.000" width="1850.044" height="19.000" />
  <rect class="deactivating" x="2607.162" y="660.000" width="0.000" height="19.000" />
  <text class="left" x="762.117" y="674.000">local-fs-pre.target</text>
  <rect class="activating" x="763.053" y="680.000" width="17.291" height="19.000" />
  <rect class="active" x="780.344" y="680.000" width="1826.818" height="19.000" />
  <rect class="deactivating" x="2607.162" y="680.000" width="0.000" height="19.000" />
  <text class="left" x="768.053" y="694.000">etc.mount (172ms)</text>
  <rect class="activating" x="769.057" y="700.000" width="10.985" height="19.000" />
  <rect class="active" x="780.042" y="700.000" width="1827.119" height="19.000" />
  <rect class="deactivating" x="2607.162" y="700.000" width="0.000" height="19.000" />
  <text class="left" x="774.057" y="714.000">run-user.mount (109ms)</text>
  <rect class="activating" x="774.221" y="720.000" width="5.380" height="19.000" />
  <rect class="active" x="779.601" y="720.000" width="1827.561" height="19.000" />
  <rect class="deactivating" x="2607.162" y="720.000" width="0.000" height="19.000" />
  <text class="left" x="779.221" y="734.000">var.mount (53ms)</text>
  <rect class="activating" x="779.048" y="740.000" width="3.223" height="19.000" />
  <rect class="active" x="782.270" y="740.000" width="1824.892" height="19.000" />
  <rect class="deactivating" x="2607.162" y="740.000" width="0.000" height="19.000" />
  <text class="left" x="784.048" y="754.000">run-lock.mount (32ms)</text>
  <rect class="activating" x="790.096" y="760.000" width="28.970" height="19.000" />
  <rect class="active" x="819.066" y="760.000" width="1788.095" height="19.000" />
  <rect class="deactivating" x="2607.162" y="760.000" width="0.000" height="19.000" />
  <text class="left" x="795.096" y="774.000">udev-finish.service (289ms)</text>
  <rect class="activating" x="796.157" y="780.000" width="14.900" height="19.000" />
  <rect class="active" x="811.056" y="780.000" width="1796.105" height="19.000" />
  <rect class="deactivating" x="2607.162" y="780.000" width="0.000" height="19.000" />
  <text class="left" x="801.157" y="794.000">etc-rw.service (148ms)</text>
  <rect class="activating" x="802.078" y="800.000" width="13.011" height="19.000" />
  <rect class="active" x="815.089" y="800.000" width="1792.073" height="19.000" />
  <rect class="deactivating" x="2607.162" y="800.000" width="0.000" height="19.000" />
  <text class="left" x="807.078" y="814.000">systemd-random-seed.service (130ms)</text>
  <rect class="activating" x="806.302" y="820.000" width="20.769" height="19.000" />
  <rect class="active" x="827.071" y="820.000" width="1780.090" height="19.000" />
  <rect class="deactivating" x="2607.162" y="820.000" width="0.000" height="19.000" />
  <text class="left" x="811.302" y="834.000">var-rw.service (207ms)</text>
  <rect class="activating" x="858.180" y="840.000" width="0.000" height="19.000" />
  <rect class="active" x="858.180" y="840.000" width="1748.982" height="19.000" />
  <rect class="deactivating" x="2607.162" y="840.000" width="0.000" height="19.000" />
  <text class="left" x="863.180" y="854.000">sys-devices-backlight.29-backlight-backlight.29.device</text>
  <rect class="activating" x="859.337" y="860.000" width="0.000" height="19.000" />
  <rect class="active" x="859.337" y="860.000" width="1747.825" height="19.000" />
  <rect class="deactivating" x="2607.162" y="860.000" width="0.000" height="19.000" />
  <text class="left" x="864.337" y="874.000">dev-ttymxc0.device</text>
  <rect class="activating" x="859.339" y="880.000" width="0.000" height="19.000" />
  <rect class="active" x="859.339" y="880.000" width="1747.823" height="19.000" />
  <rect class="deactivating" x="2607.162" y="880.000" width="0.000" height="19.000" />
  <text class="left" x="864.339" y="894.000">sys-devices-soc.0-2000000.aips\x2dbus-2000000.spba\x2dbus-2020000.serial-tty-ttymxc0.device</text>
  <rect class="activating" x="860.307" y="900.000" width="0.000" height="19.000" />
  <rect class="active" x="860.307" y="900.000" width="1746.855" height="19.000" />
  <rect class="deactivating" x="2607.162" y="900.000" width="0.000" height="19.000" />
  <text class="left" x="865.307" y="914.000">dev-mtdblock0.device</text>
  <rect class="activating" x="860.309" y="920.000" width="0.000" height="19.000" />
  <rect class="active" x="860.309" y="920.000" width="1746.853" height="19.000" />
  <rect class="deactivating" x="2607.162" y="920.000" width="0.000" height="19.000" />
  <text class="left" x="865.309" y="934.000">sys-devices-soc.0-2000000.aips\x2dbus-2000000.spba\x2dbus-2008000.ecspi-spi_master-spi32766-spi32766.0-mtd-mtd0-mtdblock0.device</text>
  <rect class="activating" x="867.598" y="940.000" width="0.000" height="19.000" />
  <rect class="active" x="867.598" y="940.000" width="1739.564" height="19.000" />
  <rect class="deactivating" x="2607.162" y="940.000" width="0.000" height="19.000" />
  <text class="left" x="872.598" y="954.000">sys-subsystem-net-devices-ifb0.device</text>
  <rect class="activating" x="867.600" y="960.000" width="0.000" height="19.000" />
  <rect class="active" x="867.600" y="960.000" width="1739.561" height="19.000" />
  <rect class="deactivating" x="2607.162" y="960.000" width="0.000" height="19.000" />
  <text class="left" x="872.600" y="974.000">sys-devices-virtual-net-ifb0.device</text>
  <rect class="activating" x="870.423" y="980.000" width="0.000" height="19.000" />
  <rect class="active" x="870.423" y="980.000" width="1736.739" height="19.000" />
  <rect class="deactivating" x="2607.162" y="980.000" width="0.000" height="19.000" />
  <text class="left" x="875.423" y="994.000">sys-subsystem-net-devices-sit0.device</text>
  <rect class="activating" x="870.428" y="1000.000" width="0.000" height="19.000" />
  <rect class="active" x="870.428" y="1000.000" width="1736.733" height="19.000" />
  <rect class="deactivating" x="2607.162" y="1000.000" width="0.000" height="19.000" />
  <text class="left" x="875.428" y="1014.000">sys-devices-virtual-net-sit0.device</text>
  <rect class="activating" x="874.110" y="1020.000" width="0.000" height="19.000" />
  <rect class="active" x="874.110" y="1020.000" width="1733.052" height="19.000" />
  <rect class="deactivating" x="2607.162" y="1020.000" width="0.000" height="19.000" />
  <text class="left" x="879.110" y="1034.000">sys-subsystem-net-devices-ifb1.device</text>
  <rect class="activating" x="874.132" y="1040.000" width="0.000" height="19.000" />
  <rect class="active" x="874.132" y="1040.000" width="1733.030" height="19.000" />
  <rect class="deactivating" x="2607.162" y="1040.000" width="0.000" height="19.000" />
  <text class="left" x="879.132" y="1054.000">sys-devices-virtual-net-ifb1.device</text>
  <rect class="activating" x="877.918" y="1060.000" width="0.000" height="19.000" />
  <rect class="active" x="877.918" y="1060.000" width="1729.244" height="19.000" />
  <rect class="deactivating" x="2607.162" y="1060.000" width="0.000" height="19.000" />
  <text class="left" x="882.918" y="1074.000">dev-disk-by\x2dpath-platform\x2d2198000.usdhc.device</text>
  <rect class="activating" x="877.920" y="1080.000" width="0.000" height="19.000" />
  <rect class="active" x="877.920" y="1080.000" width="1729.241" height="19.000" />
  <rect class="deactivating" x="2607.162" y="1080.000" width="0.000" height="19.000" />
  <text class="left" x="882.920" y="1094.000">dev-disk-by\x2did-mmc\x2dSDC_0x9500025f.device</text>
  <rect class="activating" x="877.922" y="1100.000" width="0.000" height="19.000" />
  <rect class="active" x="877.922" y="1100.000" width="1729.240" height="19.000" />
  <rect class="deactivating" x="2607.162" y="1100.000" width="0.000" height="19.000" />
  <text class="left" x="882.922" y="1114.000">dev-mmcblk0.device</text>
  <rect class="activating" x="877.923" y="1120.000" width="0.000" height="19.000" />
  <rect class="active" x="877.923" y="1120.000" width="1729.239" height="19.000" />
  <rect class="deactivating" x="2607.162" y="1120.000" width="0.000" height="19.000" />
  <text class="left" x="882.923" y="1134.000">sys-devices-soc.0-2100000.aips\x2dbus-2198000.usdhc-mmc_host-mmc0-mmc0:b368-block-mmcblk0.device</text>
  <rect class="activating" x="886.034" y="1140.000" width="0.000" height="19.000" />
  <rect class="active" x="886.034" y="1140.000" width="1721.128" height="19.000" />
  <rect class="deactivating" x="2607.162" y="1140.000" width="0.000" height="19.000" />
  <text class="left" x="891.034" y="1154.000">dev-ttymxc1.device</text>
  <rect class="activating" x="888.358" y="1160.000" width="0.000" height="19.000" />
  <rect class="active" x="888.358" y="1160.000" width="1718.804" height="19.000" />
  <rect class="deactivating" x="2607.162" y="1160.000" width="0.000" height="19.000" />
  <text class="left" x="893.358" y="1174.000">sys-devices-soc.0-2100000.aips\x2dbus-21e8000.serial-tty-ttymxc1.device</text>
  <rect class="activating" x="895.808" y="1180.000" width="0.000" height="19.000" />
  <rect class="active" x="895.808" y="1180.000" width="1711.353" height="19.000" />
  <rect class="deactivating" x="2607.162" y="1180.000" width="0.000" height="19.000" />
  <text class="left" x="900.808" y="1194.000">sys-subsystem-net-devices-eth0.device</text>
  <rect class="activating" x="895.811" y="1200.000" width="0.000" height="19.000" />
  <rect class="active" x="895.811" y="1200.000" width="1711.350" height="19.000" />
  <rect class="deactivating" x="2607.162" y="1200.000" width="0.000" height="19.000" />
  <text class="left" x="900.811" y="1214.000">sys-devices-soc.0-2100000.aips\x2dbus-2188000.ethernet-net-eth0.device</text>
  <rect class="activating" x="918.722" y="1220.000" width="0.000" height="19.000" />
  <rect class="active" x="918.722" y="1220.000" width="1688.439" height="19.000" />
  <rect class="deactivating" x="2607.162" y="1220.000" width="0.000" height="19.000" />
  <text class="left" x="923.722" y="1234.000">dev-disk-by\x2duuid-6A10\x2dC7A4.device</text>
  <rect class="activating" x="918.726" y="1240.000" width="0.000" height="19.000" />
  <rect class="active" x="918.726" y="1240.000" width="1688.436" height="19.000" />
  <rect class="deactivating" x="2607.162" y="1240.000" width="0.000" height="19.000" />
  <text class="left" x="923.726" y="1254.000">dev-disk-by\x2dpath-platform\x2d2198000.usdhc\x2dpart1.device</text>
  <rect class="activating" x="918.728" y="1260.000" width="0.000" height="19.000" />
  <rect class="active" x="918.728" y="1260.000" width="1688.434" height="19.000" />
  <rect class="deactivating" x="2607.162" y="1260.000" width="0.000" height="19.000" />
  <text class="left" x="923.728" y="1274.000">dev-disk-by\x2dpartuuid-0bf38f4a\x2d4284\x2d42e5\x2d8cea\x2d172392a37e4d.device</text>
  <rect class="activating" x="918.729" y="1280.000" width="0.000" height="19.000" />
  <rect class="active" x="918.729" y="1280.000" width="1688.433" height="19.000" />
  <rect class="deactivating" x="2607.162" y="1280.000" width="0.000" height="19.000" />
  <text class="left" x="923.729" y="1294.000">dev-disk-by\x2dpartlabel-boot.device</text>
  <rect class="activating" x="918.730" y="1300.000" width="0.000" height="19.000" />
  <rect class="active" x="918.730" y="1300.000" width="1688.432" height="19.000" />
  <rect class="deactivating" x="2607.162" y="1300.000" width="0.000" height="19.000" />
  <text class="left" x="923.730" y="1314.000">dev-disk-by\x2dlabel-boot.device</text>
  <rect class="activating" x="918.731" y="1320.000" width="0.000" height="19.000" />
  <rect class="active" x="918.731" y="1320.000" width="1688.430" height="19.000" />
  <rect class="deactivating" x="2607.162" y="1320.000" width="0.000" height="19.000" />
  <text class="left" x="923.731" y="1334.000">dev-disk-by\x2did-mmc\x2dSDC_0x9500025f\x2dpart1.device</text>
  <rect class="activating" x="918.733" y="1340.000" width="0.000" height="19.000" />
  <rect class="active" x="918.733" y="1340.000" width="1688.429" height="19.000" />
  <rect class="deactivating" x="2607.162" y="1340.000" width="0.000" height="19.000" />
  <text class="left" x="923.733" y="1354.000">dev-mmcblk0p1.device</text>
  <rect class="activating" x="918.734" y="1360.000" width="0.000" height="19.000" />
  <rect class="active" x="918.734" y="1360.000" width="1688.428" height="19.000" />
  <rect class="deactivating" x="2607.162" y="1360.000" width="0.000" height="19.000" />
  <text class="left" x="923.734" y="1374.000">sys-devices-soc.0-2100000.aips\x2dbus-2198000.usdhc-mmc_host-mmc0-mmc0:b368-block-mmcblk0-mmcblk0p1.device</text>
  <rect class="activating" x="922.726" y="1380.000" width="0.000" height="19.000" />
  <rect class="active" x="922.726" y="1380.000" width="1684.436" height="19.000" />
  <rect class="deactivating" x="2607.162" y="1380.000" width="0.000" height="19.000" />
  <text class="left" x="927.726" y="1394.000">dev-disk-by\x2duuid-6A43\x2d8416.device</text>
  <rect class="activating" x="922.730" y="1400.000" width="0.000" height="19.000" />
  <rect class="active" x="922.730" y="1400.000" width="1684.432" height="19.000" />
  <rect class="deactivating" x="2607.162" y="1400.000" width="0.000" height="19.000" />
  <text class="left" x="927.730" y="1414.000">dev-disk-by\x2dpath-platform\x2d2198000.usdhc\x2dpart5.device</text>
  <rect class="activating" x="922.732" y="1420.000" width="0.000" height="19.000" />
  <rect class="active" x="922.732" y="1420.000" width="1684.430" height="19.000" />
  <rect class="deactivating" x="2607.162" y="1420.000" width="0.000" height="19.000" />
  <text class="left" x="927.732" y="1434.000">dev-disk-by\x2dpartuuid-13478b91\x2dc032\x2d4278\x2db0ea\x2d40b59882c17f.device</text>
  <rect class="activating" x="922.733" y="1440.000" width="0.000" height="19.000" />
  <rect class="active" x="922.733" y="1440.000" width="1684.429" height="19.000" />
  <rect class="deactivating" x="2607.162" y="1440.000" width="0.000" height="19.000" />
  <text class="left" x="927.733" y="1454.000">dev-disk-by\x2dpartlabel-boot_2.device</text>
  <rect class="activating" x="922.734" y="1460.000" width="0.000" height="19.000" />
  <rect class="active" x="922.734" y="1460.000" width="1684.428" height="19.000" />
  <rect class="deactivating" x="2607.162" y="1460.000" width="0.000" height="19.000" />
  <text class="left" x="927.734" y="1474.000">dev-disk-by\x2dlabel-boot_2.device</text>
  <rect class="activating" x="922.735" y="1480.000" width="0.000" height="19.000" />
  <rect class="active" x="922.735" y="1480.000" width="1684.426" height="19.000" />
  <rect class="deactivating" x="2607.162" y="1480.000" width="0.000" height="19.000" />
  <text class="left" x="927.735" y="1494.000">dev-disk-by\x2did-mmc\x2dSDC_0x9500025f\x2dpart5.device</text>
  <rect class="activating" x="922.737" y="1500.000" width="0.000" height="19.000" />
  <rect class="active" x="922.737" y="1500.000" width="1684.425" height="19.000" />
  <rect class="deactivating" x="2607.162" y="1500.000" width="0.000" height="19.000" />
  <text class="left" x="927.737" y="1514.000">dev-mmcblk0p5.device</text>
  <rect class="activating" x="922.738" y="1520.000" width="0.000" height="19.000" />
  <rect class="active" x="922.738" y="1520.000" width="1684.424" height="19.000" />
  <rect class="deactivating" x="2607.162" y="1520.000" width="0.000" height="19.000" />
  <text class="left" x="927.738" y="1534.000">sys-devices-soc.0-2100000.aips\x2dbus-2198000.usdhc-mmc_host-mmc0-mmc0:b368-block-mmcblk0-mmcblk0p5.device</text>
  <rect class="activating" x="929.112" y="1540.000" width="0.000" height="19.000" />
  <rect class="active" x="929.112" y="1540.000" width="1678.050" height="19.000" />
  <rect class="deactivating" x="2607.162" y="1540.000" width="0.000" height="19.000" />
  <text class="left" x="934.112" y="1554.000">dev-disk-by\x2dpath-platform\x2d2198000.usdhc\x2dpart8.device</text>
  <rect class="activating" x="929.114" y="1560.000" width="0.000" height="19.000" />
  <rect class="active" x="929.114" y="1560.000" width="1678.048" height="19.000" />
  <rect class="deactivating" x="2607.162" y="1560.000" width="0.000" height="19.000" />
  <text class="left" x="934.114" y="1574.000">dev-disk-by\x2dpartuuid-34f672f7\x2dc569\x2d419a\x2d8857\x2dbe081fe8a448.device</text>
  <rect class="activating" x="929.115" y="1580.000" width="0.000" height="19.000" />
  <rect class="active" x="929.115" y="1580.000" width="1678.047" height="19.000" />
  <rect class="deactivating" x="2607.162" y="1580.000" width="0.000" height="19.000" />
  <text class="left" x="934.115" y="1594.000">dev-disk-by\x2dpartlabel-flags_backup.device</text>
  <rect class="activating" x="929.116" y="1600.000" width="0.000" height="19.000" />
  <rect class="active" x="929.116" y="1600.000" width="1678.046" height="19.000" />
  <rect class="deactivating" x="2607.162" y="1600.000" width="0.000" height="19.000" />
  <text class="left" x="934.116" y="1614.000">dev-disk-by\x2did-mmc\x2dSDC_0x9500025f\x2dpart8.device</text>
  <rect class="activating" x="929.117" y="1620.000" width="0.000" height="19.000" />
  <rect class="active" x="929.117" y="1620.000" width="1678.044" height="19.000" />
  <rect class="deactivating" x="2607.162" y="1620.000" width="0.000" height="19.000" />
  <text class="left" x="934.117" y="1634.000">dev-mmcblk0p8.device</text>
  <rect class="activating" x="929.118" y="1640.000" width="0.000" height="19.000" />
  <rect class="active" x="929.118" y="1640.000" width="1678.043" height="19.000" />
  <rect class="deactivating" x="2607.162" y="1640.000" width="0.000" height="19.000" />
  <text class="left" x="934.118" y="1654.000">sys-devices-soc.0-2100000.aips\x2dbus-2198000.usdhc-mmc_host-mmc0-mmc0:b368-block-mmcblk0-mmcblk0p8.device</text>
  <rect class="activating" x="931.361" y="1660.000" width="0.000" height="19.000" />
  <rect class="active" x="931.361" y="1660.000" width="1675.801" height="19.000" />
  <rect class="deactivating" x="2607.162" y="1660.000" width="0.000" height="19.000" />
  <text class="left" x="936.361" y="1674.000">dev-disk-by\x2dpath-platform\x2d2198000.usdhc\x2dpart3.device</text>
  <rect class="activating" x="931.363" y="1680.000" width="0.000" height="19.000" />
  <rect class="active" x="931.363" y="1680.000" width="1675.798" height="19.000" />
  <rect class="deactivating" x="2607.162" y="1680.000" width="0.000" height="19.000" />
  <text class="left" x="936.363" y="1694.000">dev-disk-by\x2dpartuuid-3d476e25\x2dbdfb\x2d4beb\x2d8824\x2d125a8864efa5.device</text>
  <rect class="activating" x="931.364" y="1700.000" width="0.000" height="19.000" />
  <rect class="active" x="931.364" y="1700.000" width="1675.797" height="19.000" />
  <rect class="deactivating" x="2607.162" y="1700.000" width="0.000" height="19.000" />
  <text class="left" x="936.364" y="1714.000">dev-disk-by\x2dpartlabel-flags.device</text>
  <rect class="activating" x="931.366" y="1720.000" width="0.000" height="19.000" />
  <rect class="active" x="931.366" y="1720.000" width="1675.796" height="19.000" />
  <rect class="deactivating" x="2607.162" y="1720.000" width="0.000" height="19.000" />
  <text class="left" x="936.366" y="1734.000">dev-disk-by\x2did-mmc\x2dSDC_0x9500025f\x2dpart3.device</text>
  <rect class="activating" x="931.367" y="1740.000" width="0.000" height="19.000" />
  <rect class="active" x="931.367" y="1740.000" width="1675.795" height="19.000" />
  <rect class="deactivating" x="2607.162" y="1740.000" width="0.000" height="19.000" />
  <text class="left" x="936.367" y="1754.000">dev-mmcblk0p3.device</text>
  <rect class="activating" x="931.368" y="1760.000" width="0.000" height="19.000" />
  <rect class="active" x="931.368" y="1760.000" width="1675.794" height="19.000" />
  <rect class="deactivating" x="2607.162" y="1760.000" width="0.000" height="19.000" />
  <text class="left" x="936.368" y="1774.000">sys-devices-soc.0-2100000.aips\x2dbus-2198000.usdhc-mmc_host-mmc0-mmc0:b368-block-mmcblk0-mmcblk0p3.device</text>
  <rect class="activating" x="937.967" y="1780.000" width="0.000" height="19.000" />
  <rect class="active" x="937.967" y="1780.000" width="1669.194" height="19.000" />
  <rect class="deactivating" x="2607.162" y="1780.000" width="0.000" height="19.000" />
  <text class="left" x="942.967" y="1794.000">sys-devices-sound_sgtl5000.30-sound-card0.device</text>
  <rect class="activating" x="944.634" y="1800.000" width="0.000" height="19.000" />
  <rect class="active" x="944.634" y="1800.000" width="1662.527" height="19.000" />
  <rect class="deactivating" x="2607.162" y="1800.000" width="0.000" height="19.000" />
  <text class="left" x="949.634" y="1814.000">dev-disk-by\x2duuid-6A32\x2d9C2F.device</text>
  <rect class="activating" x="944.637" y="1820.000" width="0.000" height="19.000" />
  <rect class="active" x="944.637" y="1820.000" width="1662.525" height="19.000" />
  <rect class="deactivating" x="2607.162" y="1820.000" width="0.000" height="19.000" />
  <text class="left" x="949.637" y="1834.000">dev-disk-by\x2dpath-platform\x2d2198000.usdhc\x2dpart4.device</text>
  <rect class="activating" x="944.638" y="1840.000" width="0.000" height="19.000" />
  <rect class="active" x="944.638" y="1840.000" width="1662.523" height="19.000" />
  <rect class="deactivating" x="2607.162" y="1840.000" width="0.000" height="19.000" />
  <text class="left" x="949.638" y="1854.000">dev-disk-by\x2dpartuuid-93fb3b5f\x2d127f\x2d40be\x2d9e09\x2d97cd90798239.device</text>
  <rect class="activating" x="944.639" y="1860.000" width="0.000" height="19.000" />
  <rect class="active" x="944.639" y="1860.000" width="1662.522" height="19.000" />
  <rect class="deactivating" x="2607.162" y="1860.000" width="0.000" height="19.000" />
  <text class="left" x="949.639" y="1874.000">dev-disk-by\x2dpartlabel-boot_1.device</text>
  <rect class="activating" x="944.641" y="1880.000" width="0.000" height="19.000" />
  <rect class="active" x="944.641" y="1880.000" width="1662.521" height="19.000" />
  <rect class="deactivating" x="2607.162" y="1880.000" width="0.000" height="19.000" />
  <text class="left" x="949.641" y="1894.000">dev-disk-by\x2dlabel-boot_1.device</text>
  <rect class="activating" x="944.642" y="1900.000" width="0.000" height="19.000" />
  <rect class="active" x="944.642" y="1900.000" width="1662.520" height="19.000" />
  <rect class="deactivating" x="2607.162" y="1900.000" width="0.000" height="19.000" />
  <text class="left" x="949.642" y="1914.000">dev-disk-by\x2did-mmc\x2dSDC_0x9500025f\x2dpart4.device</text>
  <rect class="activating" x="944.643" y="1920.000" width="0.000" height="19.000" />
  <rect class="active" x="944.643" y="1920.000" width="1662.518" height="19.000" />
  <rect class="deactivating" x="2607.162" y="1920.000" width="0.000" height="19.000" />
  <text class="left" x="949.643" y="1934.000">dev-mmcblk0p4.device</text>
  <rect class="activating" x="944.644" y="1940.000" width="0.000" height="19.000" />
  <rect class="active" x="944.644" y="1940.000" width="1662.517" height="19.000" />
  <rect class="deactivating" x="2607.162" y="1940.000" width="0.000" height="19.000" />
  <text class="left" x="949.644" y="1954.000">sys-devices-soc.0-2100000.aips\x2dbus-2198000.usdhc-mmc_host-mmc0-mmc0:b368-block-mmcblk0-mmcblk0p4.device</text>
  <rect class="activating" x="945.668" y="1960.000" width="0.000" height="19.000" />
  <rect class="active" x="945.668" y="1960.000" width="1661.493" height="19.000" />
  <rect class="deactivating" x="2607.162" y="1960.000" width="0.000" height="19.000" />
  <text class="left" x="950.668" y="1974.000">sound.target</text>
  <rect class="activating" x="952.263" y="1980.000" width="0.000" height="19.000" />
  <rect class="active" x="952.263" y="1980.000" width="1654.899" height="19.000" />
  <rect class="deactivating" x="2607.162" y="1980.000" width="0.000" height="19.000" />
  <text class="left" x="957.263" y="1994.000">system-ifup.slice</text>
  <rect class="activating" x="953.308" y="2000.000" width="0.000" height="19.000" />
  <rect class="active" x="953.308" y="2000.000" width="1653.854" height="19.000" />
  <rect class="deactivating" x="2607.162" y="2000.000" width="0.000" height="19.000" />
  <text class="left" x="958.308" y="2014.000">system-systemd\x2dbacklight.slice</text>
  <rect class="activating" x="957.148" y="2020.000" width="14.933" height="19.000" />
  <rect class="active" x="972.080" y="2020.000" width="1635.081" height="19.000" />
  <rect class="deactivating" x="2607.162" y="2020.000" width="0.000" height="19.000" />
  <text class="left" x="962.148" y="2034.000">systemd-backlight@backlight:backlight.29.service (149ms)</text>
  <rect class="activating" x="982.218" y="2040.000" width="0.000" height="19.000" />
  <rect class="active" x="982.218" y="2040.000" width="1624.944" height="19.000" />
  <rect class="deactivating" x="2607.162" y="2040.000" width="0.000" height="19.000" />
  <text class="left" x="987.218" y="2054.000">dev-disk-by\x2duuid-6A21\x2dA002.device</text>
  <rect class="activating" x="982.220" y="2060.000" width="0.000" height="19.000" />
  <rect class="active" x="982.220" y="2060.000" width="1624.942" height="19.000" />
  <rect class="deactivating" x="2607.162" y="2060.000" width="0.000" height="19.000" />
  <text class="left" x="987.220" y="2074.000">dev-disk-by\x2dpath-platform\x2d2198000.usdhc\x2dpart2.device</text>
  <rect class="activating" x="982.221" y="2080.000" width="0.000" height="19.000" />
  <rect class="active" x="982.221" y="2080.000" width="1624.940" height="19.000" />
  <rect class="deactivating" x="2607.162" y="2080.000" width="0.000" height="19.000" />
  <text class="left" x="987.221" y="2094.000">dev-disk-by\x2dpartuuid-95dd989b\x2d6d74\x2d41ea\x2db3e0\x2ded4d24be8203.device</text>
  <rect class="activating" x="982.223" y="2100.000" width="0.000" height="19.000" />
  <rect class="active" x="982.223" y="2100.000" width="1624.939" height="19.000" />
  <rect class="deactivating" x="2607.162" y="2100.000" width="0.000" height="19.000" />
  <text class="left" x="987.223" y="2114.000">dev-disk-by\x2dpartlabel-factory_reset.device</text>
  <rect class="activating" x="982.224" y="2120.000" width="0.000" height="19.000" />
  <rect class="active" x="982.224" y="2120.000" width="1624.938" height="19.000" />
  <rect class="deactivating" x="2607.162" y="2120.000" width="0.000" height="19.000" />
  <text class="left" x="987.224" y="2134.000">dev-disk-by\x2dlabel-factory_res.device</text>
  <rect class="activating" x="982.225" y="2140.000" width="0.000" height="19.000" />
  <rect class="active" x="982.225" y="2140.000" width="1624.937" height="19.000" />
  <rect class="deactivating" x="2607.162" y="2140.000" width="0.000" height="19.000" />
  <text class="left" x="987.225" y="2154.000">dev-disk-by\x2did-mmc\x2dSDC_0x9500025f\x2dpart2.device</text>
  <rect class="activating" x="982.226" y="2160.000" width="0.000" height="19.000" />
  <rect class="active" x="982.226" y="2160.000" width="1624.936" height="19.000" />
  <rect class="deactivating" x="2607.162" y="2160.000" width="0.000" height="19.000" />
  <text class="left" x="987.226" y="2174.000">dev-mmcblk0p2.device</text>
  <rect class="activating" x="982.227" y="2180.000" width="0.000" height="19.000" />
  <rect class="active" x="982.227" y="2180.000" width="1624.935" height="19.000" />
  <rect class="deactivating" x="2607.162" y="2180.000" width="0.000" height="19.000" />
  <text class="left" x="987.227" y="2194.000">sys-devices-soc.0-2100000.aips\x2dbus-2198000.usdhc-mmc_host-mmc0-mmc0:b368-block-mmcblk0-mmcblk0p2.device</text>
  <rect class="activating" x="996.899" y="2200.000" width="0.000" height="19.000" />
  <rect class="active" x="996.899" y="2200.000" width="1610.263" height="19.000" />
  <rect class="deactivating" x="2607.162" y="2200.000" width="0.000" height="19.000" />
  <text class="left" x="1001.899" y="2214.000">dev-disk-by\x2duuid-7dabd545\x2dde9c\x2d4d7c\x2dbdc8\x2da52fdd4ffe29.device</text>
  <rect class="activating" x="997.091" y="2220.000" width="0.000" height="19.000" />
  <rect class="active" x="997.091" y="2220.000" width="1610.071" height="19.000" />
  <rect class="deactivating" x="2607.162" y="2220.000" width="0.000" height="19.000" />
  <text class="left" x="1002.091" y="2234.000">dev-disk-by\x2dpath-platform\x2d2198000.usdhc\x2dpart7.device</text>
  <rect class="activating" x="997.092" y="2240.000" width="0.000" height="19.000" />
  <rect class="active" x="997.092" y="2240.000" width="1610.070" height="19.000" />
  <rect class="deactivating" x="2607.162" y="2240.000" width="0.000" height="19.000" />
  <text class="left" x="1002.092" y="2254.000">dev-disk-by\x2dpartuuid-a4feaf34\x2db940\x2d42df\x2d99ce\x2d80a4653626e7.device</text>
  <rect class="activating" x="997.093" y="2260.000" width="0.000" height="19.000" />
  <rect class="active" x="997.093" y="2260.000" width="1610.068" height="19.000" />
  <rect class="deactivating" x="2607.162" y="2260.000" width="0.000" height="19.000" />
  <text class="left" x="1002.093" y="2274.000">dev-disk-by\x2dpartlabel-general_storage.device</text>
  <rect class="activating" x="997.095" y="2280.000" width="0.000" height="19.000" />
  <rect class="active" x="997.095" y="2280.000" width="1610.067" height="19.000" />
  <rect class="deactivating" x="2607.162" y="2280.000" width="0.000" height="19.000" />
  <text class="left" x="1002.095" y="2294.000">dev-disk-by\x2dlabel-general_storage.device</text>
  <rect class="activating" x="997.096" y="2300.000" width="0.000" height="19.000" />
  <rect class="active" x="997.096" y="2300.000" width="1610.066" height="19.000" />
  <rect class="deactivating" x="2607.162" y="2300.000" width="0.000" height="19.000" />
  <text class="left" x="1002.096" y="2314.000">dev-disk-by\x2did-mmc\x2dSDC_0x9500025f\x2dpart7.device</text>
  <rect class="activating" x="997.097" y="2320.000" width="0.000" height="19.000" />
  <rect class="active" x="997.097" y="2320.000" width="1610.065" height="19.000" />
  <rect class="deactivating" x="2607.162" y="2320.000" width="0.000" height="19.000" />
  <text class="left" x="1002.097" y="2334.000">dev-mmcblk0p7.device</text>
  <rect class="activating" x="997.098" y="2340.000" width="0.000" height="19.000" />
  <rect class="active" x="997.098" y="2340.000" width="1610.064" height="19.000" />
  <rect class="deactivating" x="2607.162" y="2340.000" width="0.000" height="19.000" />
  <text class="left" x="1002.098" y="2354.000">sys-devices-soc.0-2100000.aips\x2dbus-2198000.usdhc-mmc_host-mmc0-mmc0:b368-block-mmcblk0-mmcblk0p7.device</text>
  <rect class="activating" x="999.431" y="2360.000" width="0.000" height="19.000" />
  <rect class="active" x="999.431" y="2360.000" width="1607.731" height="19.000" />
  <rect class="deactivating" x="2607.162" y="2360.000" width="0.000" height="19.000" />
  <text class="left" x="1004.431" y="2374.000">dev-disk-by\x2duuid-cb808cea\x2dbbd1\x2d4cfb\x2da9b4\x2d260509ba8de5.device</text>
  <rect class="activating" x="999.433" y="2380.000" width="0.000" height="19.000" />
  <rect class="active" x="999.433" y="2380.000" width="1607.729" height="19.000" />
  <rect class="deactivating" x="2607.162" y="2380.000" width="0.000" height="19.000" />
  <text class="left" x="1004.433" y="2394.000">dev-disk-by\x2dpath-platform\x2d2198000.usdhc\x2dpart6.device</text>
  <rect class="activating" x="999.434" y="2400.000" width="0.000" height="19.000" />
  <rect class="active" x="999.434" y="2400.000" width="1607.727" height="19.000" />
  <rect class="deactivating" x="2607.162" y="2400.000" width="0.000" height="19.000" />
  <text class="left" x="1004.434" y="2414.000">dev-disk-by\x2dpartuuid-e3a31c7f\x2d5ae1\x2d412a\x2d9965\x2d0ef42d39af2e.device</text>
  <rect class="activating" x="999.435" y="2420.000" width="0.000" height="19.000" />
  <rect class="active" x="999.435" y="2420.000" width="1607.726" height="19.000" />
  <rect class="deactivating" x="2607.162" y="2420.000" width="0.000" height="19.000" />
  <text class="left" x="1004.435" y="2434.000">dev-disk-by\x2dpartlabel-system.device</text>
  <rect class="activating" x="999.436" y="2440.000" width="0.000" height="19.000" />
  <rect class="active" x="999.436" y="2440.000" width="1607.725" height="19.000" />
  <rect class="deactivating" x="2607.162" y="2440.000" width="0.000" height="19.000" />
  <text class="left" x="1004.436" y="2454.000">dev-disk-by\x2dlabel-system.device</text>
  <rect class="activating" x="999.437" y="2460.000" width="0.000" height="19.000" />
  <rect class="active" x="999.437" y="2460.000" width="1607.724" height="19.000" />
  <rect class="deactivating" x="2607.162" y="2460.000" width="0.000" height="19.000" />
  <text class="left" x="1004.437" y="2474.000">dev-disk-by\x2did-mmc\x2dSDC_0x9500025f\x2dpart6.device</text>
  <rect class="activating" x="999.439" y="2480.000" width="0.000" height="19.000" />
  <rect class="active" x="999.439" y="2480.000" width="1607.723" height="19.000" />
  <rect class="deactivating" x="2607.162" y="2480.000" width="0.000" height="19.000" />
  <text class="left" x="1004.439" y="2494.000">dev-mmcblk0p6.device</text>
  <rect class="activating" x="999.440" y="2500.000" width="0.000" height="19.000" />
  <rect class="active" x="999.440" y="2500.000" width="1607.722" height="19.000" />
  <rect class="deactivating" x="2607.162" y="2500.000" width="0.000" height="19.000" />
  <text class="left" x="1004.440" y="2514.000">sys-devices-soc.0-2100000.aips\x2dbus-2198000.usdhc-mmc_host-mmc0-mmc0:b368-block-mmcblk0-mmcblk0p6.device</text>
  <rect class="activating" x="1025.173" y="2520.000" width="0.000" height="19.000" />
  <rect class="active" x="1025.173" y="2520.000" width="1581.989" height="19.000" />
  <rect class="deactivating" x="2607.162" y="2520.000" width="0.000" height="19.000" />
  <text class="left" x="1030.173" y="2534.000">paths.target</text>
  <rect class="activating" x="1025.679" y="2540.000" width="0.000" height="19.000" />
  <rect class="active" x="1025.679" y="2540.000" width="1581.482" height="19.000" />
  <rect class="deactivating" x="2607.162" y="2540.000" width="0.000" height="19.000" />
  <text class="left" x="1030.679" y="2554.000">systemd-ask-password-plymouth.path</text>
  <rect class="activating" x="1027.086" y="2560.000" width="21.971" height="19.000" />
  <rect class="active" x="1049.057" y="2560.000" width="1558.105" height="19.000" />
  <rect class="deactivating" x="2607.162" y="2560.000" width="0.000" height="19.000" />
  <text class="left" x="1032.086" y="2574.000">systemd-fsck@dev-disk-by\x2duuid-7dabd545\x2dde9c\x2d4d7c\x2dbdc8\x2da52fdd4ffe29.service (219ms)</text>
  <rect class="activating" x="1056.063" y="2580.000" width="5.804" height="19.000" />
  <rect class="active" x="1061.867" y="2580.000" width="1545.295" height="19.000" />
  <rect class="deactivating" x="2607.162" y="2580.000" width="0.000" height="19.000" />
  <text class="left" x="1061.063" y="2594.000">Applications.mount (58ms)</text>
  <rect class="activating" x="1061.062" y="2600.000" width="10.700" height="19.000" />
  <rect class="active" x="1071.762" y="2600.000" width="1535.400" height="19.000" />
  <rect class="deactivating" x="2607.162" y="2600.000" width="0.000" height="19.000" />
  <text class="left" x="1066.062" y="2614.000">home.mount (107ms)</text>
  <rect class="activating" x="1064.622" y="2620.000" width="0.000" height="19.000" />
  <rect class="active" x="1064.622" y="2620.000" width="1542.540" height="19.000" />
  <rect class="deactivating" x="2607.162" y="2620.000" width="0.000" height="19.000" />
  <text class="left" x="1069.622" y="2634.000">sys-subsystem-net-devices-eth1.device</text>
  <rect class="activating" x="1064.624" y="2640.000" width="0.000" height="19.000" />
  <rect class="active" x="1064.624" y="2640.000" width="1542.538" height="19.000" />
  <rect class="deactivating" x="2607.162" y="2640.000" width="0.000" height="19.000" />
  <text class="left" x="1069.624" y="2654.000">sys-devices-soc.0-2100000.aips\x2dbus-2184200.usb-ci_hdrc.1-usb1-1\x2d1-1\x2d1.2-1\x2d1.2:1.0-net-eth1.device</text>
  <rect class="activating" x="1066.938" y="2660.000" width="0.000" height="19.000" />
  <rect class="active" x="1066.938" y="2660.000" width="1540.224" height="19.000" />
  <rect class="deactivating" x="2607.162" y="2660.000" width="0.000" height="19.000" />
  <text class="left" x="1071.938" y="2674.000">sys-devices-soc.0-2100000.aips\x2dbus-2184200.usb-ci_hdrc.1-usb1-1\x2d1-1\x2d1.1-1\x2d1.1.3-1\x2d1.1.3:1.0-ieee80211-phy0-rfkill0.device</text>
  <rect class="activating" x="1074.876" y="2680.000" width="0.000" height="19.000" />
  <rect class="active" x="1074.876" y="2680.000" width="1532.286" height="19.000" />
  <rect class="deactivating" x="2607.162" y="2680.000" width="0.000" height="19.000" />
  <text class="left" x="1079.876" y="2694.000">sys-subsystem-net-devices-wlan0.device</text>
  <rect class="activating" x="1074.878" y="2700.000" width="0.000" height="19.000" />
  <rect class="active" x="1074.878" y="2700.000" width="1532.284" height="19.000" />
  <rect class="deactivating" x="2607.162" y="2700.000" width="0.000" height="19.000" />
  <text class="left" x="1079.878" y="2714.000">sys-devices-soc.0-2100000.aips\x2dbus-2184200.usb-ci_hdrc.1-usb1-1\x2d1-1\x2d1.1-1\x2d1.1.3-1\x2d1.1.3:1.0-net-wlan0.device</text>
  <rect class="activating" x="1086.063" y="2720.000" width="126.104" height="19.000" />
  <rect class="active" x="1212.167" y="2720.000" width="0.000" height="19.000" />
  <rect class="deactivating" x="1212.167" y="2720.000" width="0.000" height="19.000" />
  <text class="left" x="1091.063" y="2734.000">plymouth-start.service (1.261s)</text>
  <rect class="activating" x="1086.275" y="2740.000" width="0.000" height="19.000" />
  <rect class="active" x="1086.275" y="2740.000" width="1520.887" height="19.000" />
  <rect class="deactivating" x="2607.162" y="2740.000" width="0.000" height="19.000" />
  <text class="left" x="1091.275" y="2754.000">system-systemd\x2drfkill.slice</text>
  <rect class="activating" x="1100.111" y="2760.000" width="50.014" height="19.000" />
  <rect class="active" x="1150.125" y="2760.000" width="1457.037" height="19.000" />
  <rect class="deactivating" x="2607.162" y="2760.000" width="0.000" height="19.000" />
  <text class="left" x="1105.111" y="2774.000">systemd-rfkill@rfkill0.service (500ms)</text>
  <rect class="activating" x="1100.146" y="2780.000" width="0.000" height="19.000" />
  <rect class="active" x="1100.146" y="2780.000" width="1507.016" height="19.000" />
  <rect class="deactivating" x="2607.162" y="2780.000" width="0.000" height="19.000" />
  <text class="left" x="1105.146" y="2794.000">local-fs.target</text>
  <rect class="activating" x="1114.331" y="2800.000" width="38.735" height="19.000" />
  <rect class="active" x="1153.066" y="2800.000" width="1454.096" height="19.000" />
  <rect class="deactivating" x="2607.162" y="2800.000" width="0.000" height="19.000" />
  <text class="left" x="1119.331" y="2814.000">auditd.service (387ms)</text>
  <rect class="activating" x="1121.054" y="2820.000" width="115.818" height="19.000" />
  <rect class="active" x="1236.873" y="2820.000" width="1370.289" height="19.000" />
  <rect class="deactivating" x="2607.162" y="2820.000" width="0.000" height="19.000" />
  <text class="left" x="1126.054" y="2834.000">networking.service (1.158s)</text>
  <rect class="activating" x="1126.113" y="2840.000" width="52.948" height="19.000" />
  <rect class="active" x="1179.061" y="2840.000" width="1428.101" height="19.000" />
  <rect class="deactivating" x="2607.162" y="2840.000" width="0.000" height="19.000" />
  <text class="left" x="1131.113" y="2854.000">apparmor.service (529ms)</text>
  <rect class="activating" x="1132.718" y="2860.000" width="34.872" height="19.000" />
  <rect class="active" x="1167.591" y="2860.000" width="0.000" height="19.000" />
  <rect class="deactivating" x="1167.591" y="2860.000" width="0.000" height="19.000" />
  <text class="left" x="1137.718" y="2874.000">plymouth-read-write.service (348ms)</text>
  <rect class="activating" x="1138.094" y="2880.000" width="46.556" height="19.000" />
  <rect class="active" x="1184.649" y="2880.000" width="1422.512" height="19.000" />
  <rect class="deactivating" x="2607.162" y="2880.000" width="0.000" height="19.000" />
  <text class="left" x="1143.094" y="2894.000">systemd-tmpfiles-setup.service (465ms)</text>
  <rect class="activating" x="1230.069" y="2900.000" width="5.584" height="19.000" />
  <rect class="active" x="1235.653" y="2900.000" width="1371.509" height="19.000" />
  <rect class="deactivating" x="2607.162" y="2900.000" width="0.000" height="19.000" />
  <text class="left" x="1235.069" y="2914.000">systemd-update-utmp.service (55ms)</text>
  <rect class="activating" x="1239.118" y="2920.000" width="0.000" height="19.000" />
  <rect class="active" x="1239.118" y="2920.000" width="1368.044" height="19.000" />
  <rect class="deactivating" x="2607.162" y="2920.000" width="0.000" height="19.000" />
  <text class="left" x="1244.118" y="2934.000">sysinit.target</text>
  <rect class="activating" x="1239.214" y="2940.000" width="0.000" height="19.000" />
  <rect class="active" x="1239.214" y="2940.000" width="1367.947" height="19.000" />
  <rect class="deactivating" x="2607.162" y="2940.000" width="0.000" height="19.000" />
  <text class="left" x="1244.214" y="2954.000">avahi-daemon.socket</text>
  <rect class="activating" x="1239.292" y="2960.000" width="0.000" height="19.000" />
  <rect class="active" x="1239.292" y="2960.000" width="1367.869" height="19.000" />
  <rect class="deactivating" x="2607.162" y="2960.000" width="0.000" height="19.000" />
  <text class="left" x="1244.292" y="2974.000">uuidd.socket</text>
  <rect class="activating" x="1239.374" y="2980.000" width="0.000" height="19.000" />
  <rect class="active" x="1239.374" y="2980.000" width="1367.788" height="19.000" />
  <rect class="deactivating" x="2607.162" y="2980.000" width="0.000" height="19.000" />
  <text class="left" x="1244.374" y="2994.000">dbus.socket</text>
  <rect class="activating" x="1239.434" y="3000.000" width="0.000" height="19.000" />
  <rect class="active" x="1239.434" y="3000.000" width="1367.727" height="19.000" />
  <rect class="deactivating" x="2607.162" y="3000.000" width="0.000" height="19.000" />
  <text class="left" x="1244.434" y="3014.000">sockets.target</text>
  <rect class="activating" x="1239.498" y="3020.000" width="0.000" height="19.000" />
  <rect class="active" x="1239.498" y="3020.000" width="1367.664" height="19.000" />
  <rect class="deactivating" x="2607.162" y="3020.000" width="0.000" height="19.000" />
  <text class="left" x="1244.498" y="3034.000">systemd-tmpfiles-clean.timer</text>
  <rect class="activating" x="1239.512" y="3040.000" width="0.000" height="19.000" />
  <rect class="active" x="1239.512" y="3040.000" width="1367.650" height="19.000" />
  <rect class="deactivating" x="2607.162" y="3040.000" width="0.000" height="19.000" />
  <text class="left" x="1244.512" y="3054.000">timers.target</text>
  <rect class="activating" x="1239.573" y="3060.000" width="0.000" height="19.000" />
  <rect class="active" x="1239.573" y="3060.000" width="1367.589" height="19.000" />
  <rect class="deactivating" x="2607.162" y="3060.000" width="0.000" height="19.000" />
  <text class="left" x="1244.573" y="3074.000">basic.target</text>
  <rect class="activating" x="1243.081" y="3080.000" width="0.000" height="19.000" />
  <rect class="active" x="1243.081" y="3080.000" width="1364.081" height="19.000" />
  <rect class="deactivating" x="2607.162" y="3080.000" width="0.000" height="19.000" />
  <text class="left" x="1248.081" y="3094.000">ifup@wlan0.service</text>
  <rect class="activating" x="1249.125" y="3100.000" width="0.000" height="19.000" />
  <rect class="active" x="1249.125" y="3100.000" width="1358.037" height="19.000" />
  <rect class="deactivating" x="2607.162" y="3100.000" width="0.000" height="19.000" />
  <text class="left" x="1254.125" y="3114.000">ifup@eth1.service</text>
  <rect class="activating" x="1255.117" y="3120.000" width="0.000" height="19.000" />
  <rect class="active" x="1255.117" y="3120.000" width="1352.044" height="19.000" />
  <rect class="deactivating" x="2607.162" y="3120.000" width="0.000" height="19.000" />
  <text class="left" x="1260.117" y="3134.000">ifup@eth0.service</text>
  <rect class="activating" x="1264.123" y="3140.000" width="0.000" height="19.000" />
  <rect class="active" x="1264.123" y="3140.000" width="1343.038" height="19.000" />
  <rect class="deactivating" x="2607.162" y="3140.000" width="0.000" height="19.000" />
  <text class="left" x="1269.123" y="3154.000">ifup@ifb0.service</text>
  <rect class="activating" x="1270.148" y="3160.000" width="0.000" height="19.000" />
  <rect class="active" x="1270.148" y="3160.000" width="1337.013" height="19.000" />
  <rect class="deactivating" x="2607.162" y="3160.000" width="0.000" height="19.000" />
  <text class="left" x="1275.148" y="3174.000">ifup@ifb1.service</text>
  <rect class="activating" x="1274.129" y="3180.000" width="0.000" height="19.000" />
  <rect class="active" x="1274.129" y="3180.000" width="1333.033" height="19.000" />
  <rect class="deactivating" x="2607.162" y="3180.000" width="0.000" height="19.000" />
  <text class="left" x="1279.129" y="3194.000">ifup@sit0.service</text>
  <rect class="activating" x="1280.115" y="3200.000" width="71.982" height="19.000" />
  <rect class="active" x="1352.097" y="3200.000" width="1255.065" height="19.000" />
  <rect class="deactivating" x="2607.162" y="3200.000" width="0.000" height="19.000" />
  <text class="left" x="1285.115" y="3214.000">avahi-daemon.service (719ms)</text>
  <rect class="activating" x="1286.090" y="3220.000" width="128.489" height="19.000" />
  <rect class="active" x="1414.580" y="3220.000" width="1192.582" height="19.000" />
  <rect class="deactivating" x="2607.162" y="3220.000" width="0.000" height="19.000" />
  <text class="left" x="1291.090" y="3234.000">connman.service (1.284s)</text>
  <rect class="activating" x="1292.969" y="3240.000" width="59.571" height="19.000" />
  <rect class="active" x="1352.539" y="3240.000" width="1254.622" height="19.000" />
  <rect class="deactivating" x="2607.162" y="3240.000" width="0.000" height="19.000" />
  <text class="left" x="1297.969" y="3254.000">ofono.service (595ms)</text>
  <rect class="activating" x="1299.082" y="3260.000" width="103.974" height="19.000" />
  <rect class="active" x="1403.056" y="3260.000" width="1204.106" height="19.000" />
  <rect class="deactivating" x="2607.162" y="3260.000" width="0.000" height="19.000" />
  <text class="left" x="1304.082" y="3274.000">motd.service (1.039s)</text>
  <rect class="activating" x="1307.069" y="3280.000" width="233.243" height="19.000" />
  <rect class="active" x="1540.311" y="3280.000" width="1066.850" height="19.000" />
  <rect class="deactivating" x="2607.162" y="3280.000" width="0.000" height="19.000" />
  <text class="right" x="1302.069" y="3294.000">bootlogs.service (2.332s)</text>
  <rect class="activating" x="1312.101" y="3300.000" width="0.000" height="19.000" />
  <rect class="active" x="1312.101" y="3300.000" width="1295.061" height="19.000" />
  <rect class="deactivating" x="2607.162" y="3300.000" width="0.000" height="19.000" />
  <text class="right" x="1307.101" y="3314.000">dbus.service</text>
  <rect class="activating" x="1360.093" y="3320.000" width="43.334" height="19.000" />
  <rect class="active" x="1403.427" y="3320.000" width="1203.735" height="19.000" />
  <rect class="deactivating" x="2607.162" y="3320.000" width="0.000" height="19.000" />
  <text class="right" x="1355.093" y="3334.000">systemd-networkd.service (433ms)</text>
  <rect class="activating" x="1363.090" y="3340.000" width="0.000" height="19.000" />
  <rect class="active" x="1363.090" y="3340.000" width="1127.956" height="19.000" />
  <rect class="deactivating" x="2491.046" y="3340.000" width="0.000" height="19.000" />
  <text class="right" x="1358.090" y="3354.000">shapwick.service</text>
  <rect class="activating" x="1364.068" y="3360.000" width="298.959" height="19.000" />
  <rect class="active" x="1663.027" y="3360.000" width="944.135" height="19.000" />
  <rect class="deactivating" x="2607.162" y="3360.000" width="0.000" height="19.000" />
  <text class="right" x="1359.068" y="3374.000">ribchester.service (2.989s)</text>
  <rect class="activating" x="1365.073" y="3380.000" width="43.726" height="19.000" />
  <rect class="active" x="1408.799" y="3380.000" width="1198.363" height="19.000" />
  <rect class="deactivating" x="2607.162" y="3380.000" width="0.000" height="19.000" />
  <text class="right" x="1360.073" y="3394.000">chaiwala-rollbackd.service (437ms)</text>
  <rect class="activating" x="1366.073" y="3400.000" width="127.407" height="19.000" />
  <rect class="active" x="1493.480" y="3400.000" width="1113.682" height="19.000" />
  <rect class="deactivating" x="2607.162" y="3400.000" width="0.000" height="19.000" />
  <text class="right" x="1361.073" y="3414.000">systemd-logind.service (1.274s)</text>
  <rect class="activating" x="1388.077" y="3420.000" width="277.988" height="19.000" />
  <rect class="active" x="1666.065" y="3420.000" width="941.097" height="19.000" />
  <rect class="deactivating" x="2607.162" y="3420.000" width="0.000" height="19.000" />
  <text class="right" x="1383.077" y="3434.000">iptables.service (2.779s)</text>
  <rect class="activating" x="1415.058" y="3440.000" width="0.000" height="19.000" />
  <rect class="active" x="1415.058" y="3440.000" width="1192.104" height="19.000" />
  <rect class="deactivating" x="2607.162" y="3440.000" width="0.000" height="19.000" />
  <text class="right" x="1410.058" y="3454.000">remote-fs.target</text>
  <rect class="activating" x="1419.079" y="3460.000" width="75.193" height="19.000" />
  <rect class="active" x="1494.271" y="3460.000" width="0.000" height="19.000" />
  <rect class="deactivating" x="1494.271" y="3460.000" width="0.000" height="19.000" />
  <text class="right" x="1414.079" y="3474.000">systemd-journal-flush.service (751ms)</text>
  <rect class="activating" x="1422.068" y="3480.000" width="521.792" height="19.000" />
  <rect class="active" x="1943.860" y="3480.000" width="663.302" height="19.000" />
  <rect class="deactivating" x="2607.162" y="3480.000" width="0.000" height="19.000" />
  <text class="right" x="1417.068" y="3494.000">systemd-networkd-wait-online.service (5.217s)</text>
  <rect class="activating" x="1422.097" y="3500.000" width="0.000" height="19.000" />
  <rect class="active" x="1422.097" y="3500.000" width="1185.064" height="19.000" />
  <rect class="deactivating" x="2607.162" y="3500.000" width="0.000" height="19.000" />
  <text class="right" x="1417.097" y="3514.000">network.target</text>
  <rect class="activating" x="1482.111" y="3520.000" width="0.000" height="19.000" />
  <rect class="active" x="1482.111" y="3520.000" width="1125.050" height="19.000" />
  <rect class="deactivating" x="2607.162" y="3520.000" width="0.000" height="19.000" />
  <text class="right" x="1477.111" y="3534.000">ssh.service</text>
  <rect class="activating" x="1482.300" y="3540.000" width="0.000" height="19.000" />
  <rect class="active" x="1482.300" y="3540.000" width="1124.862" height="19.000" />
  <rect class="deactivating" x="2607.162" y="3540.000" width="0.000" height="19.000" />
  <text class="right" x="1477.300" y="3554.000">nss-lookup.target</text>
  <rect class="activating" x="1492.160" y="3560.000" width="30.195" height="19.000" />
  <rect class="active" x="1522.355" y="3560.000" width="1084.807" height="19.000" />
  <rect class="deactivating" x="2607.162" y="3560.000" width="0.000" height="19.000" />
  <text class="right" x="1487.160" y="3574.000">systemd-resolved.service (301ms)</text>
  <rect class="activating" x="1506.098" y="3580.000" width="15.974" height="19.000" />
  <rect class="active" x="1522.071" y="3580.000" width="1085.090" height="19.000" />
  <rect class="deactivating" x="2607.162" y="3580.000" width="0.000" height="19.000" />
  <text class="right" x="1501.098" y="3594.000">systemd-user-sessions.service (159ms)</text>
  <rect class="activating" x="1525.132" y="3600.000" width="15.550" height="19.000" />
  <rect class="active" x="1540.682" y="3600.000" width="0.000" height="19.000" />
  <rect class="deactivating" x="1540.682" y="3600.000" width="0.000" height="19.000" />
  <text class="right" x="1520.132" y="3614.000">plymouth-quit.service (155ms)</text>
  <rect class="activating" x="1529.082" y="3620.000" width="12.328" height="19.000" />
  <rect class="active" x="1541.409" y="3620.000" width="0.000" height="19.000" />
  <rect class="deactivating" x="1541.409" y="3620.000" width="0.000" height="19.000" />
  <text class="right" x="1524.082" y="3634.000">plymouth-quit-wait.service (123ms)</text>
  <rect class="activating" x="1537.062" y="3640.000" width="10.058" height="19.000" />
  <rect class="active" x="1547.120" y="3640.000" width="1060.041" height="19.000" />
  <rect class="deactivating" x="2607.162" y="3640.000" width="0.000" height="19.000" />
  <text class="right" x="1532.062" y="3654.000">chaiwala-user@seat0-1000.service (100ms)</text>
  <rect class="activating" x="1556.085" y="3660.000" width="0.000" height="19.000" />
  <rect class="active" x="1556.085" y="3660.000" width="1051.077" height="19.000" />
  <rect class="deactivating" x="2607.162" y="3660.000" width="0.000" height="19.000" />
  <text class="right" x="1551.085" y="3674.000">getty@tty1.service</text>
  <rect class="activating" x="1556.860" y="3680.000" width="0.000" height="19.000" />
  <rect class="active" x="1556.860" y="3680.000" width="1050.302" height="19.000" />
  <rect class="deactivating" x="2607.162" y="3680.000" width="0.000" height="19.000" />
  <text class="right" x="1551.860" y="3694.000">serial-getty@ttymxc1.service</text>
  <rect class="activating" x="1557.225" y="3700.000" width="0.000" height="19.000" />
  <rect class="active" x="1557.225" y="3700.000" width="1049.936" height="19.000" />
  <rect class="deactivating" x="2607.162" y="3700.000" width="0.000" height="19.000" />
  <text class="right" x="1552.225" y="3714.000">getty.target</text>
  <rect class="activating" x="1637.058" y="3720.000" width="41.076" height="19.000" />
  <rect class="active" x="1678.134" y="3720.000" width="929.028" height="19.000" />
  <rect class="deactivating" x="2607.162" y="3720.000" width="0.000" height="19.000" />
  <text class="right" x="1632.058" y="3734.000">systemd-hostnamed.service (410ms)</text>
  <rect class="activating" x="1662.939" y="3740.000" width="0.000" height="19.000" />
  <rect class="active" x="1662.939" y="3740.000" width="944.223" height="19.000" />
  <rect class="deactivating" x="2607.162" y="3740.000" width="0.000" height="19.000" />
  <text class="right" x="1657.939" y="3754.000">run-user-1000.mount</text>
  <rect class="activating" x="1670.190" y="3760.000" width="0.000" height="19.000" />
  <rect class="active" x="1670.190" y="3760.000" width="936.971" height="19.000" />
  <rect class="deactivating" x="2607.162" y="3760.000" width="0.000" height="19.000" />
  <text class="right" x="1665.190" y="3774.000">user-1000.slice</text>
  <rect class="activating" x="1673.033" y="3780.000" width="0.000" height="19.000" />
  <rect class="active" x="1673.033" y="3780.000" width="934.128" height="19.000" />
  <rect class="deactivating" x="2607.162" y="3780.000" width="0.000" height="19.000" />
  <text class="right" x="1668.033" y="3794.000">session-c1.scope</text>
  <rect class="activating" x="1676.081" y="3800.000" width="11.219" height="19.000" />
  <rect class="active" x="1687.300" y="3800.000" width="919.862" height="19.000" />
  <rect class="deactivating" x="2607.162" y="3800.000" width="0.000" height="19.000" />
  <text class="right" x="1671.081" y="3814.000">user@1000.service (112ms)</text>
  <rect class="activating" x="1946.091" y="3820.000" width="0.000" height="19.000" />
  <rect class="active" x="1946.091" y="3820.000" width="661.070" height="19.000" />
  <rect class="deactivating" x="2607.162" y="3820.000" width="0.000" height="19.000" />
  <text class="right" x="1941.091" y="3834.000">network-online.target</text>
  <rect class="activating" x="1947.051" y="3840.000" width="632.580" height="19.000" />
  <rect class="active" x="2579.631" y="3840.000" width="27.531" height="19.000" />
  <rect class="deactivating" x="2607.162" y="3840.000" width="0.000" height="19.000" />
  <text class="right" x="1942.051" y="3854.000">apache2.service (6.325s)</text>
  <rect class="activating" x="2265.130" y="3860.000" width="0.000" height="19.000" />
  <rect class="active" x="2265.130" y="3860.000" width="342.031" height="19.000" />
  <rect class="deactivating" x="2607.162" y="3860.000" width="0.000" height="19.000" />
  <text class="right" x="2260.130" y="3874.000">run-user-0.mount</text>
  <rect class="activating" x="2265.718" y="3880.000" width="0.000" height="19.000" />
  <rect class="active" x="2265.718" y="3880.000" width="341.443" height="19.000" />
  <rect class="deactivating" x="2607.162" y="3880.000" width="0.000" height="19.000" />
  <text class="right" x="2260.718" y="3894.000">user-0.slice</text>
  <rect class="activating" x="2270.019" y="3900.000" width="0.000" height="19.000" />
  <rect class="active" x="2270.019" y="3900.000" width="337.143" height="19.000" />
  <rect class="deactivating" x="2607.162" y="3900.000" width="0.000" height="19.000" />
  <text class="right" x="2265.019" y="3914.000">session-c2.scope</text>
  <rect class="activating" x="2276.091" y="3920.000" width="9.802" height="19.000" />
  <rect class="active" x="2285.894" y="3920.000" width="321.268" height="19.000" />
  <rect class="deactivating" x="2607.162" y="3920.000" width="0.000" height="19.000" />
  <text class="right" x="2271.091" y="3934.000">user@0.service (98ms)</text>
  <rect class="activating" x="2579.834" y="3940.000" width="0.000" height="19.000" />
  <rect class="active" x="2579.834" y="3940.000" width="27.328" height="19.000" />
  <rect class="deactivating" x="2607.162" y="3940.000" width="0.000" height="19.000" />
  <text class="right" x="2574.834" y="3954.000">multi-user.target</text>
  <rect class="activating" x="2579.854" y="3960.000" width="0.000" height="19.000" />
  <rect class="active" x="2579.854" y="3960.000" width="27.307" height="19.000" />
  <rect class="deactivating" x="2607.162" y="3960.000" width="0.000" height="19.000" />
  <text class="right" x="2574.854" y="3974.000">graphical.target</text>
  <rect class="activating" x="2581.104" y="3980.000" width="25.749" height="19.000" />
  <rect class="active" x="2606.852" y="3980.000" width="0.000" height="19.000" />
  <rect class="deactivating" x="2606.852" y="3980.000" width="0.000" height="19.000" />
  <text class="right" x="2576.104" y="3994.000">systemd-update-utmp-runlevel.service (257ms)</text>
</g>
<g transform="translate(20,100)">
  <rect class="activating" x="0.000" y="4020.000" width="30.000" height="19.000" />
  <text class="left" x="45.000" y="4034.000">Activating</text>
  <rect class="active" x="0.000" y="4040.000" width="30.000" height="19.000" />
  <text class="left" x="45.000" y="4054.000">Active</text>
  <rect class="deactivating" x="0.000" y="4060.000" width="30.000" height="19.000" />
  <text class="left" x="45.000" y="4074.000">Deactivating</text>
  <rect class="security" x="0.000" y="4080.000" width="30.000" height="19.000" />
  <text class="left" x="45.000" y="4094.000">Setting up security module</text>
  <rect class="generators" x="0.000" y="4100.000" width="30.000" height="19.000" />
  <text class="left" x="45.000" y="4114.000">Generators</text>
  <rect class="unitsload" x="0.000" y="4120.000" width="30.000" height="19.000" />
  <text class="left" x="45.000" y="4134.000">Loading unit files</text>
</g>

</svg>
